src/1_wave.vcd
$date
	Tue Sep 23 19:20:14 2025
$end
$version
	QuestaSim Version 10.6c
$end
$timescale
	1ns
$end
$scope module top $end
$scope module DUT $end
$var wire 1 ! apb_read_paddr [8] $end
$var wire 1 " apb_read_paddr [7] $end
$var wire 1 # apb_read_paddr [6] $end
$var wire 1 $ apb_read_paddr [5] $end
$var wire 1 % apb_read_paddr [4] $end
$var wire 1 & apb_read_paddr [3] $end
$var wire 1 ' apb_read_paddr [2] $end
$var wire 1 ( apb_read_paddr [1] $end
$var wire 1 ) apb_read_paddr [0] $end
$upscope $end
$upscope $end
$enddefinitions $end
#0
x!
x"
x#
x$
x%
x&
x'
x(
x)
#15
0!
0"
0#
0$
1%
1&
1'
0(
0)
#85
1$
1(
#115
1!
1"
0$
0%
0&
0'
0(
1)
#145
1&
1'
0)
#175
0!
0"
1#
1$
1%
0&
1)
#205
1!
1"
0#
0$
#235
0"
1#
0%
1&
0'
1(
0)
#265
0!
1$
1)
#295
1!
0#
1%
0&
#325
1"
1#
0%
0)
#355
0"
0$
1'
0(
1)
#385
0!
1$
1%
0'
1(
#415
1!
0#
0$
1'
0(
#445
1"
1#
0%
1(
#475
0!
1%
1&
0(
#505
1!
0"
0#
1$
0%
0&
0)
#535
0!
#565
1#
0$
1&
1)
#595
0#
1%
0)
#625
1"
0%
#655
1$
1(
1)
#685
1!
0"
1#
0&
0'
0(
#715
0!
0$
0)
#745
0#
1&
1)
#775
1!
1$
1%
0&
1'
#805
0!
0%
1&
1(
#835
1%
0&
0'
#865
1"
1#
0$
0%
1&
1'
0)
#895
0"
0#
0'
0(
1)
#925
1"
1#
1%
0&
#955
1!
1$
0%
1(
0)
#985
0#
1&
1'
1)
#1015
0!
1#
1%
0&
0'
#1045
0(
0)
#1075
1!
0"
0#
0%
1&
1'
#1105
1%
0&
0'
1)
#1135
1#
1'
1(
0)
#1165
0!
0#
0%
0'
1)
#1195
1!
0$
0(
0)
#1225
0!
1"
1#
1$
1'
1)
#1255
0$
1%
1&
0'
#1285
0#
1'
0)
#1315
1$
0&
1(
1)
#1345
0"
0$
0%
0(
#1375
1!
1"
1#
1%
0'
0)
#1405
0!
1$
1)
#1435
1!
0"
0$
1&
1'
1(
#1465
1"
0#
1$
0%
0&
0(
0)
#1495
0!
0"
1#
1%
1&
0'
#1525
1!
1"
0#
1(
1)
#1555
0!
1#
0$
0&
0)
#1585
0#
1$
0%
0(
#1615
0"
1#
1%
1&
1'
1)
#1645
1!
1"
0$
0%
#1675
1%
0&
#1705
0!
0"
0#
0%
1(
0)
#1735
1$
0'
0(
#1765
1"
1&
1'
1(
1)
#1795
1#
0$
0&
0(
0)
#1825
1!
1%
1&
#1885
0!
0"
1$
0%
0'
1(
#1915
1"
1%
0&
1'
0(
#1945
0"
0%
1&
0'
#1975
1%
0&
#2005
1&
#2035
1"
0#
0$
0%
0&
1'
1(
1)
#2065
1!
1%
1&
0(
#2095
1#
1$
0&
1(
0)
#2125
0!
0"
0%
1&
0(
#2155
1!
1)
#2185
0!
0$
0&
0'
1(
0)
#2215
1"
0#
1&
1'
#2245
0"
1$
1%
0'
1)
#2275
1!
0$
0%
#2305
0!
1'
0(
0)
#2335
1"
1$
1%
0&
0'
1(
1)
#2365
0"
1#
0(
0)
#2395
1!
1"
0$
1&
1'
1)
#2425
0"
0'
1(
0)
#2455
0!
0#
1$
0&
0(
#2485
1#
0$
0%
1&
1(
1)
#2515
1"
1%
1'
0)
#2545
0"
0(
1)
#2575
0#
1$
0%
0'
1(
0)
#2605
1"
1'
1)
#2635
1!
0"
1#
1%
0&
0'
0)
#2665
0!
1"
0#
0%
#2695
1!
1'
1)
#2725
0!
0"
1#
0$
0'
#2755
1"
0#
1'
0(
0)
#2785
0"
1$
1%
1)
#2815
1!
1"
1#
1&
#2845
0!
0"
0'
1(
#2875
1"
0#
0%
0&
1'
#2905
0"
1%
1&
0'
0(
#2935
1!
0$
0%
0&
1'
#2965
1%
0'
0)
#2995
1"
1$
0%
1'
#3025
0"
1%
1&
0'
1)
#3055
1"
1#
0$
0%
0&
#3085
0!
0"
1$
1(
0)
#3115
0#
1'
#3145
1!
1#
1%
1&
0'
1)
#3175
0!
1"
0&
0)
#3205
0#
0$
1'
0(
#3235
1!
1#
0%
1(
1)
#3265
0!
0"
1&
0'
#3295
1!
1%
0&
0)
#3325
0!
1"
1$
0%
1'
1)
#3355
1!
0"
1%
1&
#3385
0'
0(
#3415
0!
0#
0$
0%
1(
0)
#3445
1#
1$
1'
0(
1)
#3475
0$
1%
0&
0'
1(
#3505
1!
1"
0#
1&
0(
0)
#3535
0!
1#
0%
1'
1)
#3565
0"
0#
1$
1%
1(
0)
#3595
1"
0(
1)
#3625
1!
0$
0&
1(
#3655
1#
1&
#3685
0!
0"
0#
1$
0%
0&
0'
0(
0)
#3715
1!
1"
0$
1%
1&
1(
1)
#3745
0!
1#
1$
0&
1'
0(
#3775
0%
#3805
0#
0$
1&
0'
0)
#3835
1!
1'
#3865
0!
0&
#3895
1!
1$
1&
0'
1)
#3925
0!
1%
0)
#3955
1!
1#
0%
0&
1(
1)
#3985
0"
0$
1&
#4015
1"
0#
1$
1'
0)
#4045
1#
0$
#4075
0#
#4105
1$
0(
1)
#4135
0!
0"
1%
0'
#4165
1!
1#
0$
0&
1'
0)
#4195
1$
1)
#4225
0!
1"
0#
0'
1(
#4255
1!
1#
1&
1'
0(
0)
#4285
0%
0&
0'
1(
1)
#4315
0#
1%
1&
1'
0(
#4345
0!
0"
1#
0'
1(
0)
#4375
0#
0$
1'
1)
#4405
1!
1$
0'
0(
0)
#4435
1#
0%
0&
1'
1(
#4465
1"
0$
1%
0'
1)
#4495
0!
0"
1&
1'
0(
#4525
1!
0#
0&
#4555
0!
1#
1$
0%
1&
0)
#4585
1!
0$
1)
#4615
0!
1"
1$
0&
0'
1(
0)
#4645
1!
0"
0$
1%
1&
1'
#4675
1"
0#
0&
0(
1)
#4705
1#
0%
1&
0'
1(
#4735
0!
1'
#4765
1!
0"
0#
1$
1%
0(
0)
#4795
0!
1#
0%
0'
#4825
1!
0$
0&
1'
1)
#4855
0!
1"
0'
1(
0)
#4885
1!
0"
0#
1&
0(
1)
#4915
1"
1#
1$
1%
#4945
0!
0"
0%
0&
1'
1(
#4975
1!
1"
0$
1%
1&
0'
0(
0)
#5005
0!
0"
0#
0%
#5035
1"
1#
1$
1%
1(
1)
#5065
0$
1'
0)
#5095
1!
0"
0'
0(
1)
#5125
0&
1'
1(
0)
#5155
0!
1"
0#
0(
#5185
1!
1#
1&
1(
1)
#5215
0"
1$
0(
#5245
0#
0$
0&
0'
#5275
1"
1#
1'
1(
0)
#5305
1&
0'
0(
1)
#5335
0&
1'
0)
#5365
0!
0#
1$
0%
1&
0'
#5395
1'
1(
#5425
1#
0'
0(
1)
#5455
1!
0"
1(
#5485
0!
0&
1'
0)
#5515
0$
1&
0'
1)
#5545
1!
1$
#5575
0!
1"
0#
1%
0(
0)
#5605
1!
0"
1#
0%
0&
1)
#5635
0!
1"
0$
1%
1&
0)
#5665
0"
0#
1$
0&
1'
1(
1)
#5695
1!
1"
1#
0(
#5725
0!
0"
0$
0%
1&
0'
1(
0)
#5755
1!
0#
1$
1%
0&
0(
1)
#5785
0!
1"
0%
1&
1'
#5815
1!
1#
1%
0'
1(
#5845
0!
0"
0&
0)
#5875
1!
0%
0(
#5905
1"
0#
0$
1%
#5935
0!
0"
1#
0%
1&
1'
1(
#5965
1"
1%
0(
#5995
1!
0%
0&
0'
1(
1)
#6025
0!
0"
0#
1&
0)
#6055
1!
1"
1#
1$
1'
0(
1)
#6085
0"
0#
0$
1%
0&
0'
1(
0)
#6115
0!
1"
1#
1$
1'
0(
1)
#6145
0$
0'
#6175
0"
1$
1(
#6205
1!
0#
0%
0(
0)
#6235
0!
1"
1#
0$
1%
1'
1(
#6265
0"
0%
#6295
1!
1"
0#
1%
1&
0(
#6325
0!
1#
1$
0'
1(
1)
#6355
0"
0#
0%
0(
#6385
1!
1#
0$
1%
0&
0)
#6415
0!
1"
0#
0%
1'
1)
#6445
0"
1#
1$
1&
0)
#6475
1!
1"
1%
0'
1(
#6505
0%
0&
1'
0(
#6535
0!
0"
0'
#6565
1!
0#
0$
1%
1&
1(
#6595
1$
1)
#6625
0!
0%
0&
1'
0(
0)
#6655
1!
1"
1#
1%
0'
#6685
0!
0#
0$
0%
1&
1'
1(
#6715
1!
0"
1$
0&
#6745
1"
1#
0$
1%
1&
#6775
0"
0#
0'
0(
#6805
0!
1"
1$
0%
0&
1'
1)
#6835
1!
0"
1#
1&
0)
#6865
0#
0&
#6895
1#
0$
1&
1(
1)
#6925
1$
0(
0)
#6955
1"
0#
0$
0&
0'
1(
#6985
1$
1&
#7015
0$
1%
0&
0(
#7045
0!
0"
1&
1'
1)
#7075
1#
0&
1(
#7105
1!
0#
1$
0%
0)
#7135
0!
1&
1)
#7165
1!
0&
0'
0(
0)
#7195
1#
0$
1&
#7225
0!
1$
1%
0&
1(
#7255
1!
0#
1&
0(
1)
#7285
0!
1#
0$
1'
0)
#7315
1!
0'
1(
1)
#7345
1"
0&
1'
0(
#7375
0!
0#
1$
1&
0'
1(
0)
#7405
0$
0%
#7435
0"
0&
1'
#7465
1!
1"
1#
1$
1%
1&
0'
0(
1)
#7495
0"
0#
0$
0%
0&
1(
0)
#7525
0!
1"
1#
1$
1)
#7555
1!
0#
0(
0)
#7585
0$
1&
1'
1)
#7615
1$
1%
0)
#7645
0%
1)
#7675
0!
0'
#7705
0"
1%
0&
1'
0)
#7735
1&
0'
1(
1)
#7765
1!
0$
0&
#7795
0!
1$
1&
1'
0(
0)
#7825
1!
1#
0$
0%
0&
1)
#7855
0!
0#
1%
1(
0)
#7885
1#
1$
1&
0(
1)
#7915
0%
#7945
1!
1"
0$
1%
0&
0)
#7975
0#
1$
0%
1&
0'
#8005
1#
0$
1%
0&
1'
1)
#8035
0#
0%
1&
1(
#8065
0"
1#
1$
0&
0(
#8095
0!
1"
0$
1%
1&
0)
#8125
1!
0#
0&
0'
1)
#8155
0"
1#
1$
1&
1(
#8185
1"
0#
0$
0%
0&
0)
#8215
0"
1#
1&
1'
0(
1)
#8245
0!
1$
0&
0'
#8275
1%
1&
1'
0)
#8305
0#
0%
1(
1)
#8335
1!
1"
0$
1%
0'
0(
#8365
0!
0"
1#
1$
0&
1(
#8395
0#
0$
0%
1&
1'
0(
#8425
1"
1#
1%
1(
#8455
1$
0%
0&
0'
0(
#8485
1!
0"
1%
1'
#8515
0!
1"
0#
0$
1(
#8545
1!
1$
1&
0'
#8575
0!
0$
1'
0)
#8605
0"
1#
#8635
1"
0%
0'
#8665
0#
1$
1%
0&
0(
#8695
1!
1&
1'
1(
#8725
0"
0$
0%
0'
1)
#8755
0!
1#
1%
1'
#8785
1"
0#
0%
0&
0(
#8815
1!
0"
1$
1%
1&
#8845
0!
0$
0%
0&
1(
0)
#8875
1$
0'
0(
1)
#8905
1(
0)
#8935
1"
1#
0$
1&
1'
#8965
1!
0"
0(
#8995
0#
1%
0&
0'
1(
1)
#9025
1"
1$
1'
#9055
0!
0"
0'
0(
#9085
0$
0%
1'
1(
#9115
1!
1"
1#
1&
0(
0)
#9145
0!
0"
0#
1$
1%
1)
#9175
1#
0$
0%
0)
#9205
1%
0&
0'
1(
#9235
0#
1$
1&
1'
1)
#9265
1!
1"
1#
0'
0(
0)
#9295
0%
1(
#9325
0#
0&
1'
0(
#9355
1&
1)
#9385
0!
0&
0'
0)
#9415
1#
0$
1%
#9445
0#
1$
0%
1&
1'
1(
1)
#9475
1!
0"
1#
1%
0(
0)
#9505
0$
0%
0&
0'
1(
#9535
1"
1%
1&
#9565
0#
0%
0&
1'
#9595
0!
1&
1)
#9625
0"
1#
0&
0(
#9655
1&
0'
0)
#9685
1!
0&
1)
#9715
0!
1"
0#
1%
1&
#9745
1!
1#
1$
0%
1'
0)
#9775
0#
0$
0&
0'
#9805
0!
0"
1#
1&
1(
1)
#9835
1!
1"
1%
#9865
0!
0"
0%
0&
0)
#9895
1"
0#
1$
1%
0(
1)
#9925
1!
0"
1#
0%
1(
0)
#9955
0!
1"
0#
1&
#9985
0"
1'
0(
1)
#10015
1#
0$
1(
#10045
1"
1%
0(
#10075
0"
0#
0'
1(
#10105
1!
1#
1$
0%
0&
1'
0)
#10135
0!
0#
0$
1&
0(
#10165
1"
0&
0'
1(
1)
#10195
1!
1#
1&
0(
0)
#10225
0!
0"
0#
1'
1(
#10255
1!
1#
0&
0(
#10285
0!
1"
1$
1&
1(
#10315
1%
0&
#10345
1!
0"
0$
1&
0(
#10375
0%
0'
1)
#10405
1$
0&
1'
#10435
1"
1&
0'
#10465
0!
1%
1'
1(
#10495
1!
0"
0%
0&
0(
0)
#10525
0'
#10555
0!
1%
1&
1(
#10585
1!
0%
0&
1'
0(
#10615
0!
0#
0$
0'
1(
1)
#10645
1!
1$
1%
1&
0)
#10675
1"
1#
0$
0&
0(
1)
#10705
0%
1'
#10735
0!
0#
1%
1(
0)
#10765
1$
0%
0'
#10795
1!
1%
1'
#10825
0!
0%
1&
0'
0(
#10855
0&
1'
1)
#10885
0$
1%
0'
#10915
1!
0"
1#
0%
#10945
1"
1%
1&
0)
#10975
0"
1$
1(
#11005
0!
0$
0%
1'
0(
1)
#11035
1"
0&
#11065
0#
0'
1(
#11095
1!
1%
1&
0(
0)
#11125
1#
1$
0%
1'
1)
#11155
0#
1%
0&
0'
1(
0)
#11185
1'
1)
#11215
0!
0$
0%
0'
0(
0)
#11245
1!
1%
1&
1'
1(
#11275
1#
0%
0&
0(
1)
#11305
0#
1$
0)
#11335
0"
0$
1(
#11365
0!
1#
1%
0'
#11395
1"
0%
1&
0(
1)
#11425
0#
0&
1(
0)
#11455
0"
1$
1%
1'
0(
1)
#11485
1!
1"
1#
0$
1&
0'
1(
#11515
0"
0#
1$
0%
0&
0(
0)
#11545
0!
1#
1&
1)
#11575
1!
0#
1%
0&
1'
0)
#11605
0!
1"
0$
1&
0'
1(
#11635
1!
0&
0(
1)
#11665
0!
0"
0%
0)
#11695
1#
1%
1&
1(
#11725
0#
0%
0&
0(
#11755
1!
1$
1&
1'
1(
#11785
0!
0$
1%
0&
0(
#11815
1"
1#
#11845
1!
0"
0#
0%
1&
0'
1(
1)
#11875
1"
1'
0(
#11905
1#
1$
1(
#11935
0!
0"
0$
1%
0&
0'
0(
#11965
1"
1$
0%
1&
1'
0)
#11995
1!
1%
0&
0'
1(
1)
#12025
0#
1'
0(
#12055
0"
1#
0%
1&
1(
0)
#12085
0!
1"
0#
0$
0&
0'
0(
#12115
0"
1(
#12145
1"
1#
1&
1)
#12175
1!
0"
1%
0&
0(
0)
#12205
1"
0#
0%
1&
#12235
1%
1'
1(
1)
#12265
0!
1$
0&
#12295
0$
0%
1&
0(
#12325
0"
1#
1$
0&
#12355
1!
0#
0$
1&
0'
#12385
0!
1"
1$
1'
#12415
1!
0"
0&
0)
#12445
1#
1%
#12475
0!
0#
0%
1(
1)
#12505
1#
1%
1&
0'
#12535
1!
0#
0$
0%
1'
0(
#12565
0!
1#
0&
1(
0)
#12595
1!
1&
0(
#12625
1"
1%
0&
1(
#12655
0!
1&
0'
1)
#12685
0#
1$
0&
1'
0(
#12715
0%
0'
#12745
1!
1#
0$
1%
0)
#12775
0!
1$
0%
1&
1'
1(
1)
#12805
1!
0"
0$
0&
0)
#12835
0!
0#
1$
0'
#12865
1"
0$
1&
1'
1)
#12895
0"
1$
1%
0'
0(
0)
#12925
0$
0%
1(
#12955
1!
1"
1#
1%
0(
1)
#12985
0!
0&
1'
0)
#13015
0#
1$
1&
1(
1)
#13045
0"
1#
0$
0)
#13075
0#
0'
0(
1)
#13105
1#
1$
0&
1(
#13135
1!
0#
0%
1'
0(
#13165
1"
0$
1%
1&
0'
1(
#13195
0"
1#
1$
0%
0&
#13225
0!
0#
1%
#13255
1!
1#
0$
0%
#13285
1"
0#
1$
1&
1'
#13315
0!
0"
1%
0'
0)
#13345
1"
1'
0(
#13375
0"
1#
0%
0'
1(
#13405
1"
0#
0$
1%
0&
0(
#13435
1#
1$
1&
1'
1(
1)
#13465
0%
0)
#13495
1!
0"
0&
0'
0(
1)
#13525
1(
#13555
0!
1"
0#
0$
1%
0(
#13585
1#
0%
1(
#13615
0"
1$
1%
1'
0)
#13645
0#
1&
0(
#13675
1#
0$
0'
1(
1)
#13705
0#
1$
0&
1'
0(
#13735
1!
0$
0%
0'
#13765
0!
1#
1$
1'
0)
#13795
1"
0#
0$
1%
0'
1(
1)
#13825
1!
1#
1'
0)
#13855
0#
0%
0'
1)
#13885
0!
0"
1$
1%
1&
1'
0(
#13915
1!
1"
1#
0&
0'
1(
0)
#13945
0!
0"
0#
0$
1&
1'
#13975
1#
1$
0%
0&
#14005
1!
1"
0#
1%
1&
0'
0(
#14035
0"
1#
0$
0%
1(
1)
#14065
0!
1"
0#
1%
0&
0)
#14095
0"
0%
1&
1'
1)
#14125
1$
1%
0&
0'
#14155
0%
#14185
1!
1&
0(
0)
#14215
0!
1#
1%
1(
1)
#14245
1!
0%
1'
#14275
1%
0)
#14305
1"
0#
0$
0%
0&
0(
1)
#14335
0!
0"
1#
1$
1&
0'
#14365
1"
0#
0$
1%
0&
1'
1(
0)
#14395
0"
1#
1&
0'
0(
1)
#14425
0#
0%
0&
1'
0)
#14455
1!
1"
1%
1(
#14485
0!
0"
1#
0%
1&
0(
#14515
0#
1$
#14545
1"
1#
0&
1(
#14575
0#
0'
0(
#14605
1#
1&
1'
1)
#14635
0"
1%
0&
0'
#14665
0#
0$
0%
0)
#14695
1"
1#
1'
1(
1)
#14725
1!
0"
0#
1$
1%
1&
0'
0(
0)
#14755
0!
1"
1#
1)
#14785
1!
0"
0$
0%
#14815
0!
1"
1$
0)
#14845
1!
0"
1)
#14875
0!
1"
0#
0$
1%
1'
0)
#14905
1!
1$
0%
0&
1(
1)
#14935
0!
0"
1#
0$
0)
#14965
1!
1"
0#
1$
1%
1&
0'
0(
#14995
0!
0"
0$
0&
1'
1(
1)
#15025
1#
1$
0'
#15055
1"
0$
#15085
0#
0%
1'
0(
#15115
0"
0'
0)
#15145
1#
1'
1(
1)
#15175
1"
0#
1$
1%
0'
0)
#15205
0"
1#
0$
1&
0(
#15235
1!
0#
0&
1'
#15265
1#
1&
0'
1)
#15295
0!
1"
1$
0%
0&
1'
1(
0)
#15325
0$
1&
0(
#15355
1!
0"
1%
0'
#15385
0!
0%
0&
1'
1(
1)
#15415
1!
0#
1%
1&
0(
#15445
0!
1"
1#
1$
0%
0&
1(
0)
#15475
1!
1%
0(
#15505
0!
0'
1)
#15535
1!
0#
0$
1'
1(
#15565
0!
0%
0)
#15595
1$
0(
#15625
0"
1#
0$
1(
1)
#15655
1"
0#
1$
1%
1&
0'
0(
#15685
1!
1#
0$
0%
0&
#15715
0"
0#
1$
1%
1'
1(
#15745
1#
0%
1&
0)
#15775
1"
0#
0(
#15805
0$
0&
0'
1(
#15835
1$
1%
1'
0(
#15865
1#
0$
1&
1(
#15895
0&
1)
#15925
0#
1$
1&
0)
#15955
0!
0"
0$
0(
1)
#15985
1!
1$
0&
1(
0)
#16015
0!
1"
0%
0'
1)
#16045
1!
0"
1%
1'
#16075
0!
1"
0$
1&
0'
0(
0)
#16105
1#
1$
0&
1'
1(
1)
#16135
1!
0"
0%
1&
#16165
0!
1"
0$
0'
0(
0)
#16195
1!
0"
0#
1$
1(
1)
#16225
1%
0&
0(
#16255
1#
0$
1&
1(
0)
#16285
1"
0#
0&
#16315
0!
0"
1#
0%
1'
0(
1)
#16345
1"
1&
0'
0)
#16375
0"
0#
1$
1'
1)
#16405
0$
1%
0&
1(
0)
#16435
1"
1$
0%
0'
#16465
1!
1&
1'
0(
1)
#16495
0!
0$
1%
0&
0'
1(
0)
#16525
1$
1&
#16555
0"
0$
0&
1'
0(
#16585
1!
1"
1#
1$
0'
1(
1)
#16615
0!
0$
0%
#16645
1!
0#
1$
1%
1'
0(
#16675
0"
1#
0$
0%
1&
1(
0)
#16705
0!
0#
1%
0&
0'
#16735
1#
0(
#16765
0%
1&
1'
1(
#16795
1!
1"
0#
1$
1%
1)
#16825
0!
0)
#16855
1!
1#
0%
0&
0'
0(
#16885
0#
0$
1'
#16915
1%
1&
1)
#16945
0!
0"
0'
0)
#16975
1!
1"
1#
0%
1(
1)
#17005
1$
0(
#17035
0#
0&
1(
#17065
1#
0$
1%
0)
#17095
0!
1$
0%
1&
1'
#17125
0"
0#
0$
0&
#17155
1"
1$
1%
0'
0(
#17185
0"
0$
1'
#17215
1"
0'
#17245
1#
1$
1&
1'
#17275
1!
0#
0'
1(
#17305
1#
0&
1'
#17335
1&
#17365
0"
0#
0'
1)
#17395
1"
0&
0(
#17425
0!
0"
1&
1'
0)
#17455
1"
1#
0$
0%
0'
1(
1)
#17485
1!
0"
0#
1%
0)
#17515
0!
1"
1$
0%
0&
1'
#17545
1!
0"
1#
1)
#17575
1"
0#
0$
#17605
0!
1#
0'
#17635
1!
0"
0#
1$
1%
0)
#17665
0!
1&
1'
1)
#17695
1#
0$
0%
0'
0)
#17725
1$
1%
1'
0(
#17755
1"
#17785
0$
0'
1)
#17815
1!
0#
1'
1(
0)
#17845
0&
1)
#17875
0!
1$
0%
1&
0'
#17905
1!
0"
1#
0$
1%
0)
#17935
1"
1$
0%
0&
1'
0(
#17965
0!
0"
0#
0$
1%
1(
1)
#17995
1"
1&
0(
#18025
1!
1#
1$
0&
0)
#18055
0%
1&
#18085
0!
0$
1%
0'
#18115
0"
0#
1$
1'
1)
#18145
1!
1#
1(
#18175
0!
0%
0&
0'
0(
#18205
1!
1&
1'
1(
#18235
1"
0#
0'
#18265
0!
0"
0$
0&
1'
#18295
1!
1"
1#
1$
0'
0(
#18325
0#
0$
1(
0)
#18355
1&
1)
#18385
0!
0"
1#
1$
1%
0(
#18415
0#
1'
1(
0)
#18445
1"
0&
0(
1)
#18475
1!
0"
1&
0'
1(
0)
#18505
1#
0$
0%
1'
0(
#18535
0!
1"
1$
1%
1(
#18565
1!
0"
0#
1)
#18595
1#
0%
0&
0(
#18625
1%
0'
1(
#18655
0#
0%
1&
1'
#18685
1"
1#
1%
0'
0(
0)
#18715
0!
0"
0#
0$
0%
1'
1(
#18745
1"
1#
1$
1%
0'
1)
#18775
1!
0$
0%
0&
0(
0)
#18805
0!
1&
1'
1(
#18835
0"
0#
0'
0(
#18865
1"
1$
1%
0&
1)
#18895
0"
1#
0$
0%
1'
0)
#18925
1!
1&
0'
1(
1)
#18955
0#
0)
#18985
1"
1'
#19015
0"
1$
1%
1)
#19045
1"
0(
0)
#19075
0!
0"
0$
0&
0'
1)
#19105
1$
1&
1'
1(
#19135
1!
1#
0%
0'
0)
#19165
1"
0#
1%
0&
1'
#19195
0!
0"
0$
0'
#19225
1"
1#
0%
1'
0(
#19255
1!
0"
1%
0'
1(
1)
#19285
1$
0%
1&
0(
#19315
1"
0#
0$
1(
0)
#19345
1$
1%
0&
1'
#19375
0!
0"
0'
#19405
1"
0$
0%
1&
1)
#19435
1!
0"
1#
1$
1%
0&
#19465
1"
0#
1&
1'
0(
0)
#19495
0"
1(
#19525
0!
1"
0$
0%
0&
1)
#19555
1!
1#
1&
0(
#19585
1%
0'
#19615
0!
0"
0%
0&
1(
0)
#19645
1!
1"
0#
1%
1)
#19675
0!
1#
1$
0(
#19705
1&
0)
#19735
1!
0"
0$
0%
0&
1(
#19765
0!
1"
0#
1$
1%
1&
1'
0(
1)
#19795
0"
1#
0%
1(
#19825
1"
1%
0&
#19855
1!
0"
0#
0%
0'
0(
#19885
1"
1#
0$
1%
1'
1(
0)
#19915
0!
1$
0%
1)
#19945
1!
0"
1%
1&
0'
0(
#19975
1"
0#
0&
1'
#20005
0"
1#
0%
0'
0)
#20035
1"
0#
1%
1&
1(
1)
#20065
0!
0"
1#
0$
#20095
0#
1'
0)
#20125
1!
1"
1#
1$
1)
#20155
0#
0'
0(
0)
#20185
0!
0"
0$
0&
1(
1)
#20215
1!
1"
1$
0%
1'
0(
#20245
0!
0"
1%
0'
1(
#20275
1!
1"
1#
0$
0%
1'
0)
#20305
0!
1%
#20335
0"
1&
0(
#20365
1!
1"
0#
1$
0&
0'
1(
1)
#20395
1#
0$
1&
1'
0)
#20425
0"
0#
1$
#20455
1"
1#
0%
0'
1)
#20485
0!
1%
1'
#20515
1!
0#
0$
0&
0(
0)
#20545
0!
0"
1&
1)
#20575
1!
1"
1#
0%
1(
0)
#20605
0"
0#
1$
1%
0'
1)
#20635
1"
0%
0&
0(
#20665
0"
1(
#20695
0!
1"
1#
0$
1&
0(
0)
#20725
0"
0#
1$
0&
1'
#20755
1"
0$
0'
1(
1)
#20785
1!
1$
1%
1&
0(
#20815
1#
1'
1(
#20845
0"
0#
0$
0&
0)
#20875
0!
1"
1#
0'
0(
1)
#20905
1!
0"
0#
1&
1'
#20935
0!
1"
0'
1(
#20965
1!
1#
0%
1'
0)
#20995
0"
0#
1$
0'
#21025
0$
1'
1)
#21055
0!
1#
1$
0&
0(
#21085
1!
0#
1&
#21115
1"
0$
0'
0)
#21145
0!
1#
0&
1'
#21175
1!
0"
0#
#21205
1"
1#
1%
1&
#21235
0!
0"
1$
0'
1)
#21265
0$
1'
0)
#21295
0#
0'
1(
#21325
1"
1#
0(
#21355
0"
0#
1$
0%
0&
1'
1)
#21385
1!
1#
1(
0)
#21415
0!
0'
1)
#21445
1!
1"
0#
0$
#21475
0"
1'
#21505
0!
1"
1&
0(
#21535
0"
0&
0'
#21565
1$
0)
#21595
1!
1#
0$
1'
1(
#21625
0!
0#
1$
1&
0(
#21655
0$
0'
1(
1)
#21685
1!
1$
1%
0&
0)
#21715
1#
0$
1'
#21745
1"
0#
1$
0'
1)
#21775
0"
1#
0%
1&
0(
#21805
0!
0&
1'
0)
#21835
0#
0$
1%
1&
0'
#21865
1$
0%
1'
#21895
1!
1"
1%
0&
0'
1(
1)
#21925
0!
0"
0$
0(
0)
#21955
1!
1#
1'
1)
#21985
0!
1"
1$
0'
1(
#22015
0#
0$
0%
1&
0(
0)
#22045
0"
1#
1$
1%
0&
1'
1(
1)
#22075
1!
1"
0%
1&
0)
#22105
0!
0#
1%
0&
1)
#22135
1!
0"
0%
0'
#22165
0!
1"
1#
1%
#22195
1!
0"
0#
0$
1'
0)
#22225
0!
1"
1#
1$
0'
0(
#22255
0"
1&
1'
1(
1)
#22285
1!
1"
0#
0$
0'
0)
#22315
0!
1$
0&
1'
0(
#22345
1!
0"
1#
0$
0'
#22375
0!
1"
0#
1$
1'
1(
#22405
1!
0"
1#
0%
0'
0(
1)
#22435
0!
0#
1&
0)
#22465
1!
0$
0&
1(
#22495
0!
1"
1#
0(
#22525
1!
0#
1&
1(
1)
#22555
1#
0&
0)
#22585
0"
1$
#22615
1"
0#
1&
1'
1)
#22645
0!
0'
0)
#22675
1#
0$
1%
0&
1'
0(
1)
#22705
1!
0#
1$
0%
1&
0)
#22735
0!
1#
0&
0'
1(
1)
#22765
1!
0"
1&
1'
0(
#22795
1"
0#
0&
1(
0)
#22825
0"
1#
1&
0(
1)
#22855
1"
0&
#22885
0"
1%
1&
0'
1(
#22915
0!
0%
0&
0)
#22945
1"
0$
1%
1&
1'
0(
#22975
1!
0"
0&
1(
1)
#23005
1"
1&
#23035
0!
0#
1$
0(
0)
#23065
0&
#23095
0"
1#
0$
1(
#23125
0#
1$
0'
0(
#23155
1!
1"
1#
0%
1&
1'
1(
1)
#23185
0!
0#
0$
0'
0)
#23215
0"
1#
1$
1%
1'
#23245
1!
1"
#23275
0!
0$
0%
0&
#23305
1!
0#
1%
0'
1)
#23335
0%
1'
0)
#23365
0!
0"
1%
0'
#23395
1"
1#
1$
1&
#23425
0#
0&
1'
0(
#23455
0"
1#
0$
0%
1&
0'
1)
#23485
1"
1%
1'
0)
#23515
0"
0#
1$
0%
0'
1(
1)
#23545
1"
1%
0&
1'
0(
#23575
1#
0%
1&
0'
#23605
1!
1%
0&
1'
1(
0)
#23635
0!
0"
0%
1&
0'
1)
#23665
1"
1%
0&
0)
#23695
0"
0%
1'
1)
#23725
1"
0$
1&
0(
0)
#23755
1!
0"
0#
1%
#23785
0!
1"
1#
1$
0%
0&
0'
#23815
1!
0"
0#
0$
1%
1&
1'
1(
#23845
1"
0%
0&
0'
#23875
0!
1#
1$
1%
1&
0(
#23905
1!
0"
0$
0%
1(
1)
#23935
1"
0#
1$
1%
0&
0(
0)
#23965
0!
0$
1&
1(
1)
#23995
1#
1$
0%
0&
0(
0)
#24025
1!
0"
0#
1%
1(
#24055
0!
1#
0$
1'
0(
#24085
1"
0'
1(
1)
#24115
0#
1$
0%
1&
1'
0(
#24145
1!
1#
0$
1%
0&
0)
#24175
0"
#24205
0!
0#
1$
1&
0'
1)
#24235
1!
1"
0$
0%
0&
1'
0)
#24265
0!
1%
0'
1(
1)
#24295
1!
0"
1#
1$
0(
0)
#24325
1"
0#
1&
1'
1(
1)
#24355
0!
0"
1#
0$
0%
0&
0'
0(
#24385
1!
1&
1'
0)
#24415
1$
1%
0'
1)
#24445
1"
0$
0&
1(
#24475
0#
1$
1'
#24505
0!
0(
#24535
1!
0"
1(
0)
#24565
1#
0%
1&
0(
#24595
0!
0#
1%
0&
1(
1)
#24625
1!
1"
1#
0%
1&
#24655
0"
1%
0&
0(
0)
#24685
1"
0'
#24715
0!
0"
0$
0%
1(
1)
#24745
0#
0(
0)
#24775
1$
1%
1'
#24805
1"
0$
#24835
1#
1$
1&
1)
#24865
0$
0'
0)
#24895
0"
0%
1'
1)
#24925
1"
1$
1(
#24955
0$
1%
#24985
1!
0#
1$
0&
0'
0(
#25015
0!
0"
0$
0%
1'
1(
