src/wave.vcd
$date
	Wed Sep 24 00:46:33 2025
$end
$version
	QuestaSim Version 10.6c
$end
$timescale
	1ns
$end

$scope module top $end
$var reg 1 ! clk $end
$var event 1 " act_e $end
$var event 1 # pass_e $end
$var reg 1 $ change $end

$scope begin setting_vif $end
$upscope $end

$scope begin initial_reset $end
$upscope $end

$scope begin test_run $end
$upscope $end

$scope module DUT $end
$var wire 1 % PCLK $end
$var wire 1 & PRESETn $end
$var wire 1 ' transfer $end
$var wire 1 ( READ_WRITE $end
$var wire 1 ) apb_write_paddr [8] $end
$var wire 1 * apb_write_paddr [7] $end
$var wire 1 + apb_write_paddr [6] $end
$var wire 1 , apb_write_paddr [5] $end
$var wire 1 - apb_write_paddr [4] $end
$var wire 1 . apb_write_paddr [3] $end
$var wire 1 / apb_write_paddr [2] $end
$var wire 1 0 apb_write_paddr [1] $end
$var wire 1 1 apb_write_paddr [0] $end
$var wire 1 2 apb_write_data [7] $end
$var wire 1 3 apb_write_data [6] $end
$var wire 1 4 apb_write_data [5] $end
$var wire 1 5 apb_write_data [4] $end
$var wire 1 6 apb_write_data [3] $end
$var wire 1 7 apb_write_data [2] $end
$var wire 1 8 apb_write_data [1] $end
$var wire 1 9 apb_write_data [0] $end
$var wire 1 : apb_read_paddr [8] $end
$var wire 1 ; apb_read_paddr [7] $end
$var wire 1 < apb_read_paddr [6] $end
$var wire 1 = apb_read_paddr [5] $end
$var wire 1 > apb_read_paddr [4] $end
$var wire 1 ? apb_read_paddr [3] $end
$var wire 1 @ apb_read_paddr [2] $end
$var wire 1 A apb_read_paddr [1] $end
$var wire 1 B apb_read_paddr [0] $end
$var wire 1 C PSLVERR $end
$var wire 1 D apb_read_data_out [7] $end
$var wire 1 E apb_read_data_out [6] $end
$var wire 1 F apb_read_data_out [5] $end
$var wire 1 G apb_read_data_out [4] $end
$var wire 1 H apb_read_data_out [3] $end
$var wire 1 I apb_read_data_out [2] $end
$var wire 1 J apb_read_data_out [1] $end
$var wire 1 K apb_read_data_out [0] $end
$var wire 1 L PWDATA [7] $end
$var wire 1 M PWDATA [6] $end
$var wire 1 N PWDATA [5] $end
$var wire 1 O PWDATA [4] $end
$var wire 1 P PWDATA [3] $end
$var wire 1 Q PWDATA [2] $end
$var wire 1 R PWDATA [1] $end
$var wire 1 S PWDATA [0] $end
$var wire 1 T PRDATA [7] $end
$var wire 1 U PRDATA [6] $end
$var wire 1 V PRDATA [5] $end
$var wire 1 W PRDATA [4] $end
$var wire 1 X PRDATA [3] $end
$var wire 1 Y PRDATA [2] $end
$var wire 1 Z PRDATA [1] $end
$var wire 1 [ PRDATA [0] $end
$var wire 1 \ PRDATA1 [7] $end
$var wire 1 ] PRDATA1 [6] $end
$var wire 1 ^ PRDATA1 [5] $end
$var wire 1 _ PRDATA1 [4] $end
$var wire 1 ` PRDATA1 [3] $end
$var wire 1 a PRDATA1 [2] $end
$var wire 1 b PRDATA1 [1] $end
$var wire 1 c PRDATA1 [0] $end
$var wire 1 d PRDATA2 [7] $end
$var wire 1 e PRDATA2 [6] $end
$var wire 1 f PRDATA2 [5] $end
$var wire 1 g PRDATA2 [4] $end
$var wire 1 h PRDATA2 [3] $end
$var wire 1 i PRDATA2 [2] $end
$var wire 1 j PRDATA2 [1] $end
$var wire 1 k PRDATA2 [0] $end
$var wire 1 l PADDR [8] $end
$var wire 1 m PADDR [7] $end
$var wire 1 n PADDR [6] $end
$var wire 1 o PADDR [5] $end
$var wire 1 p PADDR [4] $end
$var wire 1 q PADDR [3] $end
$var wire 1 r PADDR [2] $end
$var wire 1 s PADDR [1] $end
$var wire 1 t PADDR [0] $end
$var wire 1 u PREADY $end
$var wire 1 v PREADY1 $end
$var wire 1 w PREADY2 $end
$var wire 1 x PENABLE $end
$var wire 1 y PSEL1 $end
$var wire 1 z PSEL2 $end
$var wire 1 { PWRITE $end

$scope module dut_mas $end
$var parameter 3 | IDLE $end
$var parameter 3 } SETUP $end
$var parameter 3 ~ ENABLE $end
$var wire 1 ) apb_write_paddr [8] $end
$var wire 1 * apb_write_paddr [7] $end
$var wire 1 + apb_write_paddr [6] $end
$var wire 1 , apb_write_paddr [5] $end
$var wire 1 - apb_write_paddr [4] $end
$var wire 1 . apb_write_paddr [3] $end
$var wire 1 / apb_write_paddr [2] $end
$var wire 1 0 apb_write_paddr [1] $end
$var wire 1 1 apb_write_paddr [0] $end
$var wire 1 : apb_read_paddr [8] $end
$var wire 1 ; apb_read_paddr [7] $end
$var wire 1 < apb_read_paddr [6] $end
$var wire 1 = apb_read_paddr [5] $end
$var wire 1 > apb_read_paddr [4] $end
$var wire 1 ? apb_read_paddr [3] $end
$var wire 1 @ apb_read_paddr [2] $end
$var wire 1 A apb_read_paddr [1] $end
$var wire 1 B apb_read_paddr [0] $end
$var wire 1 2 apb_write_data [7] $end
$var wire 1 3 apb_write_data [6] $end
$var wire 1 4 apb_write_data [5] $end
$var wire 1 5 apb_write_data [4] $end
$var wire 1 6 apb_write_data [3] $end
$var wire 1 7 apb_write_data [2] $end
$var wire 1 8 apb_write_data [1] $end
$var wire 1 9 apb_write_data [0] $end
$var wire 1 T PRDATA [7] $end
$var wire 1 U PRDATA [6] $end
$var wire 1 V PRDATA [5] $end
$var wire 1 W PRDATA [4] $end
$var wire 1 X PRDATA [3] $end
$var wire 1 Y PRDATA [2] $end
$var wire 1 Z PRDATA [1] $end
$var wire 1 [ PRDATA [0] $end
$var wire 1 & PRESETn $end
$var wire 1 % PCLK $end
$var wire 1 ( READ_WRITE $end
$var wire 1 ' transfer $end
$var wire 1 u PREADY $end
$var wire 1 y PSEL1 $end
$var wire 1 z PSEL2 $end
$var reg 1 !! PENABLE $end
$var reg 9 "! PADDR [8:0] $end
$var reg 1 #! PWRITE $end
$var reg 8 $! PWDATA [7:0] $end
$var reg 8 %! apb_read_data_out [7:0] $end
$var wire 1 C PSLVERR $end
$var reg 3 &! state [2:0] $end
$var reg 3 '! next_state [2:0] $end
$var reg 1 (! invalid_setup_error $end
$var reg 1 )! setup_error $end
$var reg 1 *! invalid_read_paddr $end
$var reg 1 +! invalid_write_paddr $end
$var reg 1 ,! invalid_write_data $end
$upscope $end

$scope module dut1 $end
$var wire 1 % PCLK $end
$var wire 1 & PRESETn $end
$var wire 1 y PSEL $end
$var wire 1 x PENABLE $end
$var wire 1 { PWRITE $end
$var wire 1 m PADDR [7] $end
$var wire 1 n PADDR [6] $end
$var wire 1 o PADDR [5] $end
$var wire 1 p PADDR [4] $end
$var wire 1 q PADDR [3] $end
$var wire 1 r PADDR [2] $end
$var wire 1 s PADDR [1] $end
$var wire 1 t PADDR [0] $end
$var wire 1 L PWDATA [7] $end
$var wire 1 M PWDATA [6] $end
$var wire 1 N PWDATA [5] $end
$var wire 1 O PWDATA [4] $end
$var wire 1 P PWDATA [3] $end
$var wire 1 Q PWDATA [2] $end
$var wire 1 R PWDATA [1] $end
$var wire 1 S PWDATA [0] $end
$var wire 1 \ PRDATA1 [7] $end
$var wire 1 ] PRDATA1 [6] $end
$var wire 1 ^ PRDATA1 [5] $end
$var wire 1 _ PRDATA1 [4] $end
$var wire 1 ` PRDATA1 [3] $end
$var wire 1 a PRDATA1 [2] $end
$var wire 1 b PRDATA1 [1] $end
$var wire 1 c PRDATA1 [0] $end
$var reg 1 -! PREADY $end
$var reg 8 .! reg_addr [7:0] $end
$upscope $end

$scope module dut2 $end
$var wire 1 % PCLK $end
$var wire 1 & PRESETn $end
$var wire 1 z PSEL $end
$var wire 1 x PENABLE $end
$var wire 1 { PWRITE $end
$var wire 1 m PADDR [7] $end
$var wire 1 n PADDR [6] $end
$var wire 1 o PADDR [5] $end
$var wire 1 p PADDR [4] $end
$var wire 1 q PADDR [3] $end
$var wire 1 r PADDR [2] $end
$var wire 1 s PADDR [1] $end
$var wire 1 t PADDR [0] $end
$var wire 1 L PWDATA [7] $end
$var wire 1 M PWDATA [6] $end
$var wire 1 N PWDATA [5] $end
$var wire 1 O PWDATA [4] $end
$var wire 1 P PWDATA [3] $end
$var wire 1 Q PWDATA [2] $end
$var wire 1 R PWDATA [1] $end
$var wire 1 S PWDATA [0] $end
$var wire 1 d PRDATA2 [7] $end
$var wire 1 e PRDATA2 [6] $end
$var wire 1 f PRDATA2 [5] $end
$var wire 1 g PRDATA2 [4] $end
$var wire 1 h PRDATA2 [3] $end
$var wire 1 i PRDATA2 [2] $end
$var wire 1 j PRDATA2 [1] $end
$var wire 1 k PRDATA2 [0] $end
$var reg 1 /! PREADY $end
$var reg 8 0! reg_addr [7:0] $end
$upscope $end
$upscope $end
$upscope $end
$enddefinitions $end
#0
$dumpvars
0!
x!!
bx "!
x#!
bx $!
bx %!
bx &!
b1 '!
x(!
0)!
0*!
0+!
x,!
0-!
bx .!
0/!
bx 0!
0$
b1 |
b10 }
b100 ~
1"
1#
xS
xR
xQ
xP
xO
xN
xM
xL
x[
xZ
xY
xX
xW
xV
xU
xT
xc
xb
xa
x`
x_
x^
x]
x\
xk
xj
xi
xh
xg
xf
xe
xd
xt
xs
xr
xq
xp
xo
xn
xm
xl
0u
0v
0w
xx
xy
xz
x{
0%
0&
x'
x(
x1
x0
x/
x.
x-
x,
x+
x*
x)
x9
x8
x7
x6
x5
x4
x3
x2
xB
xA
x@
x?
x>
x=
x<
x;
x:
xC
xK
xJ
xI
xH
xG
xF
xE
xD
$end
#5
1!
1%
b1 &!
0z
0y
#10
0!
0%
#15
1!
1%
1"
1'
1&
1(
0B
0A
1@
1?
1>
0=
0<
0;
0:
09
18
07
06
15
04
03
12
01
00
1/
1.
1-
0,
0+
0*
0)
0,!
0(!
0#!
0!!
b10 '!
0C
0{
0x
#20
0!
0%
#25
1!
1%
b10 &!
xz
xy
1)!
1(!
b11100 "!
b100 '!
1C
0t
0s
1r
1q
1p
0o
0n
0m
0l
0z
1y
0)!
0(!
0C
#30
0!
0%
#35
1!
1%
b100 &!
1!!
1x
1-!
b11100 .!
1v
1u
b10 '!
#40
0!
0%
#45
1!
1%
b10 &!
0!!
b100 '!
0x
0-!
0v
0u
1#
#50
0!
0%
#55
1!
1%
b100 &!
1!!
1x
1-!
1v
1u
b10 '!
1"
0(
17
05
02
#60
0!
0%
#65
1!
1%
b10 &!
1#!
0!!
b110 $!
b100 '!
1{
0x
0S
1R
1Q
0P
0O
0N
0M
0L
0-!
0v
0u
#70
0!
0%
#75
1!
1%
b100 &!
1!!
1x
1-!
1v
0c
1b
1a
0`
0_
0^
0]
0\
1u
b10 '!
#80
0!
0%
#85
1!
1%
b10 &!
0!!
b100 '!
0x
0-!
0v
0u
1#
#90
0!
0%
#95
1!
1%
b100 &!
1!!
1x
1-!
1v
1u
b10 '!
1"
1B
0@
0?
0>
1;
1:
08
07
14
13
12
11
0/
0.
0-
1*
1)
#100
0!
0%
#105
1!
1%
b10 &!
1)!
1(!
0!!
b110000001 "!
b11100000 $!
b100 '!
1C
0x
0R
0Q
1N
1M
1L
1t
0r
0q
0p
1m
1l
1z
0y
0u
b1 '!
0-!
0)!
0(!
0v
0C
#110
0!
0%
#115
1!
1%
b1 &!
0z
b10 '!
#120
0!
0%
#125
1!
1%
b10 &!
1z
b100 '!
1#
#130
0!
0%
#135
1!
1%
b100 &!
1!!
1x
1/!
1w
1u
b10 '!
1"
1(
#140
0!
0%
#145
1!
1%
b10 &!
0#!
0!!
b100 '!
0{
0x
0/!
0w
0u
#150
0!
0%
#155
1!
1%
b100 &!
1!!
1x
1/!
b10000001 0!
1w
0k
0j
0i
0h
0g
1f
1e
1d
0[
0Z
0Y
0X
0W
1V
1U
1T
1u
b10 '!
b11100000 %!
0K
0J
0I
0H
0G
1F
1E
1D
#160
0!
0%
#165
1!
1%
b10 &!
0!!
b100 '!
0x
0/!
0w
0u
1#
#170
0!
0%
#175
1!
1%
b100 &!
1!!
1x
1/!
1w
1u
b10 '!
1"
0(
1@
1>
1=
1<
0;
0:
19
15
04
1/
1-
1,
1+
0*
0)
x[
xZ
xY
xX
xW
xV
xU
xT
#180
0!
0%
#185
1!
1%
b10 &!
1)!
1(!
1#!
0!!
b1110101 "!
b11010001 $!
b100 '!
1C
1{
0x
1S
1O
0N
1r
1p
1o
1n
0m
0l
0z
1y
0u
b1 '!
0/!
0)!
0(!
0w
0C
#190
0!
0%
#195
1!
1%
b1 &!
0y
b10 '!
#200
0!
0%
#205
1!
1%
b10 &!
1y
b100 '!
1#
#210
0!
0%
#215
1!
1%
b100 &!
1!!
1x
1-!
1v
1u
b10 '!
1"
1(
0[
1Z
1Y
0X
0W
0V
0U
0T
#220
0!
0%
#225
1!
1%
b10 &!
0#!
0!!
b100 '!
0{
0x
0-!
0v
0u
#230
0!
0%
#235
1!
1%
b100 &!
1!!
1x
1-!
b1110101 .!
1v
1c
0b
0a
1_
1]
1\
1[
0Z
0Y
1W
1U
1T
1u
b10 '!
b11010001 %!
1K
1G
0F
#240
0!
0%
#245
1!
1%
b10 &!
0!!
b100 '!
0x
0-!
0v
0u
1#
#250
0!
0%
#255
1!
1%
b100 &!
1!!
1x
1-!
1v
1u
b10 '!
1"
0(
0B
1A
0@
1?
0>
0=
1:
09
17
01
10
0/
1.
0-
0,
1)
x[
xZ
xY
xX
xW
xV
xU
xT
#260
0!
0%
#265
1!
1%
b10 &!
1)!
1(!
1#!
0!!
b101001010 "!
b11010100 $!
b100 '!
1C
1{
0x
0S
1Q
0t
1s
0r
1q
0p
0o
1l
1z
0y
0u
b1 '!
0-!
0)!
0(!
0v
0C
#270
0!
0%
#275
1!
1%
b1 &!
0z
b10 '!
#280
0!
0%
#285
1!
1%
b10 &!
1z
b100 '!
1#
#290
0!
0%
#295
1!
1%
b100 &!
1!!
1x
1/!
1w
1u
b10 '!
1"
1(
0[
0Z
0Y
0X
0W
1V
1U
1T
#300
0!
0%
#305
1!
1%
b10 &!
0#!
0!!
b100 '!
0{
0x
0/!
0w
0u
#310
0!
0%
#315
1!
1%
b100 &!
1!!
1x
1/!
b1001010 0!
1w
1i
1g
0f
1Y
1W
0V
1u
b10 '!
b11010100 %!
0K
1I
#320
0!
0%
#325
1!
1%
b10 &!
0!!
b100 '!
0x
0/!
0w
0u
1#
#330
0!
0%
#335
1!
1%
b100 &!
1!!
1x
1/!
1w
1u
b10 '!
1"
0(
1B
0?
1>
1=
0<
19
07
16
02
11
0.
1-
1,
0+
x[
xZ
xY
xX
xW
xV
xU
xT
#340
0!
0%
#345
1!
1%
b10 &!
1)!
1(!
1#!
0!!
b100110011 "!
b1011001 $!
b100 '!
1C
1{
0x
1S
0Q
1P
0L
1t
0q
1p
1o
0n
0/!
0)!
0(!
0w
0C
0u
#350
0!
0%
#355
1!
1%
b100 &!
1!!
1x
1/!
1w
1u
b10 '!
#360
0!
0%
#365
1!
1%
b10 &!
0!!
b100 '!
0x
0/!
0w
0u
1#
#370
0!
0%
#375
1!
1%
b100 &!
1!!
1x
1/!
1w
1u
b10 '!
1"
1(
0[
0Z
1Y
0X
1W
0V
1U
1T
#380
0!
0%
#385
1!
1%
b10 &!
0#!
0!!
b100 '!
0{
0x
0/!
0w
0u
#390
0!
0%
#395
1!
1%
b100 &!
1!!
1x
1/!
b110011 0!
1w
1k
0i
1h
0d
1[
0Y
1X
0T
1u
b10 '!
b1011001 %!
1K
0I
1H
0D
#400
0!
0%
#405
1!
1%
b10 &!
0!!
b100 '!
0x
0/!
0w
0u
1#
#410
0!
0%
#415
1!
1%
b100 &!
1!!
1x
1/!
1w
1u
b10 '!
1"
0(
0A
1@
0>
0=
1<
17
03
12
00
1/
0-
0,
1+
x[
xZ
xY
xX
xW
xV
xU
xT
#420
0!
0%
#425
1!
1%
b10 &!
1)!
1(!
1#!
0!!
b101000101 "!
b10011101 $!
b100 '!
1C
1{
0x
1Q
0M
1L
0s
1r
0p
0o
1n
0/!
0)!
0(!
0w
0C
0u
#430
0!
0%
#435
1!
1%
b100 &!
1!!
1x
1/!
1w
1u
b10 '!
#440
0!
0%
#445
1!
1%
b10 &!
0!!
b100 '!
0x
0/!
0w
0u
1#
#450
0!
0%
#455
1!
1%
b100 &!
1!!
1x
1/!
1w
1u
b10 '!
1"
1(
1[
0Z
0Y
1X
1W
0V
1U
0T
#460
0!
0%
#465
1!
1%
b10 &!
0#!
0!!
b100 '!
0{
0x
0/!
0w
0u
#470
0!
0%
#475
1!
1%
b100 &!
1!!
1x
1/!
b1000101 0!
1w
1i
0e
1d
1Y
0U
1T
1u
b10 '!
b10011101 %!
1I
0E
1D
#480
0!
0%
#485
1!
1%
b10 &!
0!!
b100 '!
0x
0/!
0w
0u
1#
#490
0!
0%
#495
1!
1%
b100 &!
1!!
1x
1/!
1w
1u
b10 '!
1"
0(
1>
0<
09
07
06
05
02
1-
0+
x[
xZ
xY
xX
xW
xV
xU
xT
#500
0!
0%
#505
1!
1%
b10 &!
1)!
1(!
1#!
0!!
b100010101 "!
b0 $!
b100 '!
1C
1{
0x
0S
0Q
0P
0O
0L
1p
0n
0/!
0)!
0(!
0w
0C
0u
#510
0!
0%
#515
1!
1%
b100 &!
1!!
1x
1/!
1w
1u
b10 '!
#520
0!
0%
#525
1!
1%
b10 &!
0!!
b100 '!
0x
0/!
0w
0u
1#
#530
0!
0%
#535
1!
1%
b100 &!
1!!
1x
1/!
1w
1u
b10 '!
1"
1(
1[
0Z
1Y
1X
1W
0V
0U
1T
#540
0!
0%
#545
1!
1%
b10 &!
0#!
0!!
b100 '!
0{
0x
0/!
0w
0u
#550
0!
0%
#555
1!
1%
b100 &!
1!!
1x
1/!
b10101 0!
1w
0k
0i
0h
0g
0d
0[
0Y
0X
0W
0T
1u
b10 '!
b0 %!
0K
0I
0H
0G
0D
#560
0!
0%
#565
1!
1%
b10 &!
0!!
b100 '!
0x
0/!
0w
0u
1#
#570
0!
0%
#575
1!
1%
b100 &!
1!!
1x
1/!
1w
1u
b10 '!
1"
0(
1?
1<
1;
0:
19
18
17
13
1.
1+
1*
0)
x[
xZ
xY
xX
xW
xV
xU
xT
#580
0!
0%
#585
1!
1%
b10 &!
1)!
1(!
1#!
0!!
b11011101 "!
b1000111 $!
b100 '!
1C
1{
0x
1S
1R
1Q
1M
1q
1n
1m
0l
0z
1y
0u
b1 '!
0/!
0)!
0(!
0w
0C
#590
0!
0%
#595
1!
1%
b1 &!
0y
b10 '!
#600
0!
0%
#605
1!
1%
b10 &!
1y
b100 '!
1#
#610
0!
0%
#615
1!
1%
b100 &!
1!!
1x
1-!
1v
1u
b10 '!
1"
1(
1[
0Z
0Y
0X
1W
0V
1U
1T
#620
0!
0%
#625
1!
1%
b10 &!
0#!
0!!
b100 '!
0{
0x
0-!
0v
0u
#630
0!
0%
#635
1!
1%
b100 &!
1!!
1x
1-!
b11011101 .!
1v
1b
1a
0_
0\
1Z
1Y
0W
0T
1u
b10 '!
b1000111 %!
1K
1J
1I
1E
#640
0!
0%
#645
1!
1%
b10 &!
0!!
b100 '!
0x
0-!
0v
0u
1#
#650
0!
0%
#655
1!
1%
b100 &!
1!!
1x
1-!
1v
1u
b10 '!
1"
0(
0B
0?
0>
1=
0<
0;
15
03
12
01
0.
0-
1,
0+
0*
x[
xZ
xY
xX
xW
xV
xU
xT
#660
0!
0%
#665
1!
1%
b10 &!
1)!
1(!
1#!
0!!
b100100 "!
b10010111 $!
b100 '!
1C
1{
0x
1O
0M
1L
0t
0q
0p
1o
0n
0m
0-!
0)!
0(!
0v
0C
0u
#670
0!
0%
#675
1!
1%
b100 &!
1!!
1x
1-!
1v
1u
b10 '!
#680
0!
0%
#685
1!
1%
b10 &!
0!!
b100 '!
0x
0-!
0v
0u
1#
#690
0!
0%
#695
1!
1%
b100 &!
1!!
1x
1-!
1v
1u
b10 '!
1"
1(
1[
1Z
1Y
0X
0W
0V
1U
0T
#700
0!
0%
#705
1!
1%
b10 &!
0#!
0!!
b100 '!
0{
0x
0-!
0v
0u
#710
0!
0%
#715
1!
1%
b100 &!
1!!
1x
1-!
b100100 .!
1v
1_
0]
1\
1W
0U
1T
1u
b10 '!
b10010111 %!
1G
0E
1D
#720
0!
0%
#725
1!
1%
b10 &!
0!!
b100 '!
0x
0-!
0v
0u
1#
#730
0!
0%
#735
1!
1%
b100 &!
1!!
1x
1-!
1v
1u
b10 '!
1"
0(
1?
1>
0=
08
07
16
14
13
02
1.
1-
0,
x[
xZ
xY
xX
xW
xV
xU
xT
#740
0!
0%
#745
1!
1%
b10 &!
1)!
1(!
1#!
0!!
b11100 "!
b1111001 $!
b100 '!
1C
1{
0x
0R
0Q
1P
1N
1M
0L
1q
1p
0o
0-!
0)!
0(!
0v
0C
0u
#750
0!
0%
#755
1!
1%
b100 &!
1!!
1x
1-!
1v
1u
b10 '!
#760
0!
0%
#765
1!
1%
b10 &!
0!!
b100 '!
0x
0-!
0v
0u
1#
#770
0!
0%
#775
1!
1%
b100 &!
1!!
1x
1-!
1v
1u
b10 '!
1"
1(
1[
1Z
1Y
0X
1W
0V
0U
1T
#780
0!
0%
#785
1!
1%
b10 &!
0#!
0!!
b100 '!
0{
0x
0-!
0v
0u
#790
0!
0%
#795
1!
1%
b100 &!
1!!
1x
1-!
b11100 .!
1v
0b
0a
1`
1^
1]
0\
0Z
0Y
1X
1V
1U
0T
1u
b10 '!
b1111001 %!
0J
0I
1H
1F
1E
0D
#800
0!
0%
#805
1!
1%
b10 &!
0!!
b100 '!
0x
0-!
0v
0u
1#
#810
0!
0%
#815
1!
1%
b100 &!
1!!
1x
1-!
1v
1u
b10 '!
1"
0(
1B
1A
0>
1=
1;
18
17
06
11
10
0-
1,
1*
x[
xZ
xY
xX
xW
xV
xU
xT
#820
0!
0%
#825
1!
1%
b10 &!
1)!
1(!
1#!
0!!
b10101111 "!
b1110111 $!
b100 '!
1C
1{
0x
1R
1Q
0P
1t
1s
0p
1o
1m
0-!
0)!
0(!
0v
0C
0u
#830
0!
0%
#835
1!
1%
b100 &!
1!!
1x
1-!
1v
1u
b10 '!
#840
0!
0%
#845
1!
1%
b10 &!
0!!
b100 '!
0x
0-!
0v
0u
1#
#850
0!
0%
#855
1!
1%
b100 &!
1!!
1x
1-!
1v
1u
b10 '!
1"
1(
1[
0Z
0Y
1X
1W
1V
1U
0T
#860
0!
0%
#865
1!
1%
b10 &!
0#!
0!!
b100 '!
0{
0x
0-!
0v
0u
#870
0!
0%
#875
1!
1%
b100 &!
1!!
1x
1-!
b10101111 .!
1v
1b
1a
0`
1Z
1Y
0X
1u
b10 '!
b1110111 %!
1J
1I
0H
#880
0!
0%
#885
1!
1%
b10 &!
0!!
b100 '!
0x
0-!
0v
0u
1#
#890
0!
0%
#895
1!
1%
b100 &!
1!!
1x
1-!
1v
1u
b10 '!
1"
0(
0B
0A
0@
0?
0=
1<
0;
09
08
05
03
12
01
00
0/
0.
0,
1+
0*
x[
xZ
xY
xX
xW
xV
xU
xT
#900
0!
0%
#905
1!
1%
b10 &!
1)!
1(!
1#!
0!!
b1000000 "!
b10100100 $!
b100 '!
1C
1{
0x
0S
0R
0O
0M
1L
0t
0s
0r
0q
0o
1n
0m
0-!
0)!
0(!
0v
0C
0u
#910
0!
0%
#915
1!
1%
b100 &!
1!!
1x
1-!
1v
1u
b10 '!
#920
0!
0%
#925
1!
1%
b10 &!
0!!
b100 '!
0x
0-!
0v
0u
1#
#930
0!
0%
#935
1!
1%
b100 &!
1!!
1x
1-!
1v
1u
b10 '!
1"
1(
1[
1Z
1Y
0X
1W
1V
1U
0T
#940
0!
0%
#945
1!
1%
b10 &!
0#!
0!!
b100 '!
0{
0x
0-!
0v
0u
#950
0!
0%
#955
1!
1%
b100 &!
1!!
1x
1-!
b1000000 .!
1v
0c
0b
0_
0]
1\
0[
0Z
0W
0U
1T
1u
b10 '!
b10100100 %!
0K
0J
0G
0E
1D
#960
0!
0%
#965
1!
1%
b10 &!
0!!
b100 '!
0x
0-!
0v
0u
1#
#970
0!
0%
#975
1!
1%
b100 &!
1!!
1x
1-!
1v
1u
b10 '!
1"
0(
1B
1@
1>
1=
0<
1:
19
07
15
04
11
1/
1-
1,
0+
1)
x[
xZ
xY
xX
xW
xV
xU
xT
#980
0!
0%
#985
1!
1%
b10 &!
1)!
1(!
1#!
0!!
b100110101 "!
b10010001 $!
b100 '!
1C
1{
0x
1S
0Q
1O
0N
1t
1r
1p
1o
0n
1l
1z
0y
0u
b1 '!
0-!
0)!
0(!
0v
0C
#990
0!
0%
#995
1!
1%
b1 &!
0z
b10 '!
#1000
0!
0%
#1005
1!
1%
b10 &!
1z
b100 '!
1#
#1010
0!
0%
#1015
1!
1%
b100 &!
1!!
1x
1/!
1w
1u
b10 '!
1"
1(
0[
0Z
0Y
0X
0W
0V
0U
0T
#1020
0!
0%
#1025
1!
1%
b10 &!
0#!
0!!
b100 '!
0{
0x
0/!
0w
0u
#1030
0!
0%
#1035
1!
1%
b100 &!
1!!
1x
1/!
b110101 0!
1w
1k
1g
1d
1[
1W
1T
1u
b10 '!
b10010001 %!
1K
0I
1G
0F
#1040
0!
0%
#1045
1!
1%
b10 &!
0!!
b100 '!
0x
0/!
0w
0u
1#
#1050
0!
0%
#1055
1!
1%
b100 &!
1!!
1x
1/!
1w
1u
b10 '!
1"
0(
1A
0@
0:
18
17
14
10
0/
0)
x[
xZ
xY
xX
xW
xV
xU
xT
#1060
0!
0%
#1065
1!
1%
b10 &!
1)!
1(!
1#!
0!!
b110011 "!
b10110111 $!
b100 '!
1C
1{
0x
1R
1Q
1N
1s
0r
0l
0z
1y
0u
b1 '!
0/!
0)!
0(!
0w
0C
#1070
0!
0%
#1075
1!
1%
b1 &!
0y
b10 '!
#1080
0!
0%
#1085
1!
1%
b10 &!
1y
b100 '!
1#
#1090
0!
0%
#1095
1!
1%
b100 &!
1!!
1x
1-!
1v
1u
b10 '!
1"
1(
0[
0Z
1Y
0X
0W
1V
0U
1T
#1100
0!
0%
#1105
1!
1%
b10 &!
0#!
0!!
b100 '!
0{
0x
0-!
0v
0u
#1110
0!
0%
#1115
1!
1%
b100 &!
1!!
1x
1-!
b110011 .!
1v
1c
1b
1_
1[
1Z
1W
1u
b10 '!
b10110111 %!
1J
1I
1F
#1120
0!
0%
#1125
1!
1%
b10 &!
0!!
b100 '!
0x
0-!
0v
0u
1#
#1130
0!
0%
#1135
1!
1%
b100 &!
1!!
1x
1-!
1v
1u
b10 '!
1"
0(
0A
1?
0>
0=
09
16
05
04
13
00
1.
0-
0,
x[
xZ
xY
xX
xW
xV
xU
xT
#1140
0!
0%
#1145
1!
1%
b10 &!
1)!
1(!
1#!
0!!
b1001 "!
b11001110 $!
b100 '!
1C
1{
0x
0S
1P
0O
0N
1M
0s
1q
0p
0o
0-!
0)!
0(!
0v
0C
0u
#1150
0!
0%
#1155
1!
1%
b100 &!
1!!
1x
1-!
1v
1u
b10 '!
#1160
0!
0%
#1165
1!
1%
b10 &!
0!!
b100 '!
0x
0-!
0v
0u
1#
#1170
0!
0%
#1175
1!
1%
b100 &!
1!!
1x
1-!
1v
1u
b10 '!
1"
1(
1[
1Z
1Y
0X
1W
1V
0U
1T
#1180
0!
0%
#1185
1!
1%
b10 &!
0#!
0!!
b100 '!
0{
0x
0-!
0v
0u
#1190
0!
0%
#1195
1!
1%
b100 &!
1!!
1x
1-!
b1001 .!
1v
0c
1`
0_
0^
1]
0[
1X
0W
0V
1U
1u
b10 '!
b11001110 %!
0K
1H
0G
0F
1E
#1200
0!
0%
#1205
1!
1%
b10 &!
0!!
b100 '!
0x
0-!
0v
0u
1#
#1210
0!
0%
#1215
1!
1%
b100 &!
1!!
1x
1-!
1v
1u
b10 '!
1"
0(
0B
1A
0?
1=
1<
1;
1:
06
14
03
01
10
0.
1,
1+
1*
1)
x[
xZ
xY
xX
xW
xV
xU
xT
#1220
0!
0%
#1225
1!
1%
b10 &!
1)!
1(!
1#!
0!!
b111100010 "!
b10100110 $!
b100 '!
1C
1{
0x
0P
1N
0M
0t
1s
0q
1o
1n
1m
1l
1z
0y
0u
b1 '!
0-!
0)!
0(!
0v
0C
#1230
0!
0%
#1235
1!
1%
b1 &!
0z
b10 '!
#1240
0!
0%
#1245
1!
1%
b10 &!
1z
b100 '!
1#
#1250
0!
0%
#1255
1!
1%
b100 &!
1!!
1x
1/!
1w
1u
b10 '!
1"
1(
1[
0Z
0Y
0X
1W
0V
0U
1T
#1260
0!
0%
#1265
1!
1%
b10 &!
0#!
0!!
b100 '!
0{
0x
0/!
0w
0u
#1270
0!
0%
#1275
1!
1%
b100 &!
1!!
1x
1/!
b11100010 0!
1w
0k
1j
1i
0g
1f
0[
1Z
1Y
0W
1V
1u
b10 '!
b10100110 %!
0H
1F
0E
#1280
0!
0%
#1285
1!
1%
b10 &!
0!!
b100 '!
0x
0/!
0w
0u
1#
#1290
0!
0%
#1295
1!
1%
b100 &!
1!!
1x
1/!
1w
1u
b10 '!
1"
0(
1B
1>
0:
19
08
04
13
02
11
1-
0)
x[
xZ
xY
xX
xW
xV
xU
xT
#1300
0!
0%
#1305
1!
1%
b10 &!
1)!
1(!
1#!
0!!
b11110011 "!
b1000101 $!
b100 '!
1C
1{
0x
1S
0R
0N
1M
0L
1t
1p
0l
0z
1y
0u
b1 '!
0/!
0)!
0(!
0w
0C
#1310
0!
0%
#1315
1!
1%
b1 &!
0y
b10 '!
#1320
0!
0%
#1325
1!
1%
b10 &!
1y
b100 '!
1#
#1330
0!
0%
#1335
1!
1%
b100 &!
1!!
1x
1-!
1v
1u
b10 '!
1"
1(
0[
1Z
1Y
1X
0W
0V
1U
1T
#1340
0!
0%
#1345
1!
1%
b10 &!
0#!
0!!
b100 '!
0{
0x
0-!
0v
0u
#1350
0!
0%
