src/wave.vcd
$date
	Tue Sep 23 22:14:43 2025
$end
$version
	QuestaSim Version 10.6c
$end
$timescale
	1ns
$end

$scope module top $end
$var reg 1 ! clk $end
$var event 1 " act_e $end
$var event 1 # pass_e $end
$var reg 1 $ change $end

$scope begin setting_vif $end
$upscope $end

$scope begin initial_reset $end
$upscope $end

$scope begin test_run $end
$upscope $end

$scope module DUT $end
$var wire 1 % PCLK $end
$var wire 1 & PRESETn $end
$var wire 1 ' transfer $end
$var wire 1 ( READ_WRITE $end
$var wire 1 ) apb_write_paddr [8] $end
$var wire 1 * apb_write_paddr [7] $end
$var wire 1 + apb_write_paddr [6] $end
$var wire 1 , apb_write_paddr [5] $end
$var wire 1 - apb_write_paddr [4] $end
$var wire 1 . apb_write_paddr [3] $end
$var wire 1 / apb_write_paddr [2] $end
$var wire 1 0 apb_write_paddr [1] $end
$var wire 1 1 apb_write_paddr [0] $end
$var wire 1 2 apb_write_data [7] $end
$var wire 1 3 apb_write_data [6] $end
$var wire 1 4 apb_write_data [5] $end
$var wire 1 5 apb_write_data [4] $end
$var wire 1 6 apb_write_data [3] $end
$var wire 1 7 apb_write_data [2] $end
$var wire 1 8 apb_write_data [1] $end
$var wire 1 9 apb_write_data [0] $end
$var wire 1 : apb_read_paddr [8] $end
$var wire 1 ; apb_read_paddr [7] $end
$var wire 1 < apb_read_paddr [6] $end
$var wire 1 = apb_read_paddr [5] $end
$var wire 1 > apb_read_paddr [4] $end
$var wire 1 ? apb_read_paddr [3] $end
$var wire 1 @ apb_read_paddr [2] $end
$var wire 1 A apb_read_paddr [1] $end
$var wire 1 B apb_read_paddr [0] $end
$var wire 1 C PSLVERR $end
$var wire 1 D apb_read_data_out [7] $end
$var wire 1 E apb_read_data_out [6] $end
$var wire 1 F apb_read_data_out [5] $end
$var wire 1 G apb_read_data_out [4] $end
$var wire 1 H apb_read_data_out [3] $end
$var wire 1 I apb_read_data_out [2] $end
$var wire 1 J apb_read_data_out [1] $end
$var wire 1 K apb_read_data_out [0] $end
$var wire 1 L PWDATA [7] $end
$var wire 1 M PWDATA [6] $end
$var wire 1 N PWDATA [5] $end
$var wire 1 O PWDATA [4] $end
$var wire 1 P PWDATA [3] $end
$var wire 1 Q PWDATA [2] $end
$var wire 1 R PWDATA [1] $end
$var wire 1 S PWDATA [0] $end
$var wire 1 T PRDATA [7] $end
$var wire 1 U PRDATA [6] $end
$var wire 1 V PRDATA [5] $end
$var wire 1 W PRDATA [4] $end
$var wire 1 X PRDATA [3] $end
$var wire 1 Y PRDATA [2] $end
$var wire 1 Z PRDATA [1] $end
$var wire 1 [ PRDATA [0] $end
$var wire 1 \ PRDATA1 [7] $end
$var wire 1 ] PRDATA1 [6] $end
$var wire 1 ^ PRDATA1 [5] $end
$var wire 1 _ PRDATA1 [4] $end
$var wire 1 ` PRDATA1 [3] $end
$var wire 1 a PRDATA1 [2] $end
$var wire 1 b PRDATA1 [1] $end
$var wire 1 c PRDATA1 [0] $end
$var wire 1 d PRDATA2 [7] $end
$var wire 1 e PRDATA2 [6] $end
$var wire 1 f PRDATA2 [5] $end
$var wire 1 g PRDATA2 [4] $end
$var wire 1 h PRDATA2 [3] $end
$var wire 1 i PRDATA2 [2] $end
$var wire 1 j PRDATA2 [1] $end
$var wire 1 k PRDATA2 [0] $end
$var wire 1 l PADDR [8] $end
$var wire 1 m PADDR [7] $end
$var wire 1 n PADDR [6] $end
$var wire 1 o PADDR [5] $end
$var wire 1 p PADDR [4] $end
$var wire 1 q PADDR [3] $end
$var wire 1 r PADDR [2] $end
$var wire 1 s PADDR [1] $end
$var wire 1 t PADDR [0] $end
$var wire 1 u PREADY $end
$var wire 1 v PREADY1 $end
$var wire 1 w PREADY2 $end
$var wire 1 x PENABLE $end
$var wire 1 y PSEL1 $end
$var wire 1 z PSEL2 $end
$var wire 1 { PWRITE $end

$scope module dut_mas $end
$var parameter 3 | IDLE $end
$var parameter 3 } SETUP $end
$var parameter 3 ~ ENABLE $end
$var wire 1 ) apb_write_paddr [8] $end
$var wire 1 * apb_write_paddr [7] $end
$var wire 1 + apb_write_paddr [6] $end
$var wire 1 , apb_write_paddr [5] $end
$var wire 1 - apb_write_paddr [4] $end
$var wire 1 . apb_write_paddr [3] $end
$var wire 1 / apb_write_paddr [2] $end
$var wire 1 0 apb_write_paddr [1] $end
$var wire 1 1 apb_write_paddr [0] $end
$var wire 1 : apb_read_paddr [8] $end
$var wire 1 ; apb_read_paddr [7] $end
$var wire 1 < apb_read_paddr [6] $end
$var wire 1 = apb_read_paddr [5] $end
$var wire 1 > apb_read_paddr [4] $end
$var wire 1 ? apb_read_paddr [3] $end
$var wire 1 @ apb_read_paddr [2] $end
$var wire 1 A apb_read_paddr [1] $end
$var wire 1 B apb_read_paddr [0] $end
$var wire 1 2 apb_write_data [7] $end
$var wire 1 3 apb_write_data [6] $end
$var wire 1 4 apb_write_data [5] $end
$var wire 1 5 apb_write_data [4] $end
$var wire 1 6 apb_write_data [3] $end
$var wire 1 7 apb_write_data [2] $end
$var wire 1 8 apb_write_data [1] $end
$var wire 1 9 apb_write_data [0] $end
$var wire 1 T PRDATA [7] $end
$var wire 1 U PRDATA [6] $end
$var wire 1 V PRDATA [5] $end
$var wire 1 W PRDATA [4] $end
$var wire 1 X PRDATA [3] $end
$var wire 1 Y PRDATA [2] $end
$var wire 1 Z PRDATA [1] $end
$var wire 1 [ PRDATA [0] $end
$var wire 1 & PRESETn $end
$var wire 1 % PCLK $end
$var wire 1 ( READ_WRITE $end
$var wire 1 ' transfer $end
$var wire 1 u PREADY $end
$var wire 1 y PSEL1 $end
$var wire 1 z PSEL2 $end
$var reg 1 !! PENABLE $end
$var reg 9 "! PADDR [8:0] $end
$var reg 1 #! PWRITE $end
$var reg 8 $! PWDATA [7:0] $end
$var reg 8 %! apb_read_data_out [7:0] $end
$var wire 1 C PSLVERR $end
$var reg 3 &! state [2:0] $end
$var reg 3 '! next_state [2:0] $end
$var reg 1 (! invalid_setup_error $end
$var reg 1 )! setup_error $end
$var reg 1 *! invalid_read_paddr $end
$var reg 1 +! invalid_write_paddr $end
$var reg 1 ,! invalid_write_data $end
$upscope $end

$scope module dut1 $end
$var wire 1 % PCLK $end
$var wire 1 & PRESETn $end
$var wire 1 y PSEL $end
$var wire 1 x PENABLE $end
$var wire 1 { PWRITE $end
$var wire 1 m PADDR [7] $end
$var wire 1 n PADDR [6] $end
$var wire 1 o PADDR [5] $end
$var wire 1 p PADDR [4] $end
$var wire 1 q PADDR [3] $end
$var wire 1 r PADDR [2] $end
$var wire 1 s PADDR [1] $end
$var wire 1 t PADDR [0] $end
$var wire 1 L PWDATA [7] $end
$var wire 1 M PWDATA [6] $end
$var wire 1 N PWDATA [5] $end
$var wire 1 O PWDATA [4] $end
$var wire 1 P PWDATA [3] $end
$var wire 1 Q PWDATA [2] $end
$var wire 1 R PWDATA [1] $end
$var wire 1 S PWDATA [0] $end
$var wire 1 \ PRDATA1 [7] $end
$var wire 1 ] PRDATA1 [6] $end
$var wire 1 ^ PRDATA1 [5] $end
$var wire 1 _ PRDATA1 [4] $end
$var wire 1 ` PRDATA1 [3] $end
$var wire 1 a PRDATA1 [2] $end
$var wire 1 b PRDATA1 [1] $end
$var wire 1 c PRDATA1 [0] $end
$var reg 1 -! PREADY $end
$var reg 8 .! reg_addr [7:0] $end
$upscope $end

$scope module dut2 $end
$var wire 1 % PCLK $end
$var wire 1 & PRESETn $end
$var wire 1 z PSEL $end
$var wire 1 x PENABLE $end
$var wire 1 { PWRITE $end
$var wire 1 m PADDR [7] $end
$var wire 1 n PADDR [6] $end
$var wire 1 o PADDR [5] $end
$var wire 1 p PADDR [4] $end
$var wire 1 q PADDR [3] $end
$var wire 1 r PADDR [2] $end
$var wire 1 s PADDR [1] $end
$var wire 1 t PADDR [0] $end
$var wire 1 L PWDATA [7] $end
$var wire 1 M PWDATA [6] $end
$var wire 1 N PWDATA [5] $end
$var wire 1 O PWDATA [4] $end
$var wire 1 P PWDATA [3] $end
$var wire 1 Q PWDATA [2] $end
$var wire 1 R PWDATA [1] $end
$var wire 1 S PWDATA [0] $end
$var wire 1 d PRDATA2 [7] $end
$var wire 1 e PRDATA2 [6] $end
$var wire 1 f PRDATA2 [5] $end
$var wire 1 g PRDATA2 [4] $end
$var wire 1 h PRDATA2 [3] $end
$var wire 1 i PRDATA2 [2] $end
$var wire 1 j PRDATA2 [1] $end
$var wire 1 k PRDATA2 [0] $end
$var reg 1 /! PREADY $end
$var reg 8 0! reg_addr [7:0] $end
$upscope $end
$upscope $end
$upscope $end
$enddefinitions $end
#0
$dumpvars
0!
x!!
bx "!
x#!
bx $!
bx %!
bx &!
b1 '!
x(!
0)!
0*!
0+!
x,!
0-!
bx .!
0/!
bx 0!
0$
b1 |
b10 }
b100 ~
1"
1#
xS
xR
xQ
xP
xO
xN
xM
xL
x[
xZ
xY
xX
xW
xV
xU
xT
xc
xb
xa
x`
x_
x^
x]
x\
xk
xj
xi
xh
xg
xf
xe
xd
xt
xs
xr
xq
xp
xo
xn
xm
xl
0u
0v
0w
xx
xy
xz
x{
0%
0&
x'
x(
x1
x0
x/
x.
x-
x,
x+
x*
x)
x9
x8
x7
x6
x5
x4
x3
x2
xB
xA
x@
x?
x>
x=
x<
x;
x:
xC
xK
xJ
xI
xH
xG
xF
xE
xD
$end
#5
1!
1%
1&
0,!
0(!
0C
b1 &!
0z
0y
0!!
b10 '!
0x
#10
0!
0%
#15
1!
1%
b10 &!
xz
xy
1)!
1(!
b1 '!
1C
0)!
1)!
1"
1'
0(
1B
0A
1@
0?
1>
0=
0<
1;
1:
09
08
07
16
05
04
03
12
11
10
0/
0.
0-
1,
0+
1*
0)
0)!
1)!
1#!
b10100011 "!
b10001000 $!
b100 '!
1{
0S
0R
0Q
1P
0O
0N
0M
1L
1t
1s
0r
0q
0p
1o
0n
1m
0l
0z
1y
0)!
0(!
0C
#20
0!
0%
#25
1!
1%
b100 &!
1!!
1x
1-!
1v
1u
b10 '!
#30
0!
0%
#35
1!
1%
b10 &!
0!!
b100 '!
0x
0-!
0v
0u
1#
#40
0!
0%
#45
1!
1%
b100 &!
1!!
1x
1-!
1v
1u
b10 '!
1"
1(
1A
0@
0>
1=
0:
18
17
06
15
14
13
#50
0!
0%
#55
1!
1%
b10 &!
1)!
1(!
0#!
0!!
b100 '!
1C
0{
0x
0-!
0)!
0(!
0v
0C
0u
#60
0!
0%
#65
1!
1%
b100 &!
1!!
1x
1-!
b10100011 .!
1v
1u
b10 '!
1#
#70
0!
0%
#75
1!
1%
b10 &!
0!!
b100 '!
0x
0-!
0v
0u
1"
0(
0B
0A
0=
0;
08
07
16
05
03
02
01
1.
1+
0*
1)!
1(!
1C
#80
0!
0%
#85
1!
1%
b100 &!
0)!
0(!
1#!
1!!
b1 '!
0C
1{
1x
1-!
1v
1u
b10 '!
#90
0!
0%
#95
1!
1%
b10 &!
1)!
1(!
0!!
b1101010 "!
b101000 $!
b100 '!
1C
0x
1N
0L
0t
1q
1n
0m
0-!
0)!
0(!
0v
0C
0u
1#
#100
0!
0%
#105
1!
1%
b100 &!
1!!
1x
1-!
1v
1u
b10 '!
1"
1(
1A
1?
1=
1<
19
18
15
#110
0!
0%
#115
1!
1%
b10 &!
1)!
1(!
0#!
0!!
b100 '!
1C
0{
0x
0-!
0)!
0(!
0v
0C
0u
#120
0!
0%
#125
1!
1%
b100 &!
1!!
1x
1-!
b1101010 .!
1v
1u
b10 '!
1#
#130
0!
0%
#135
1!
1%
b10 &!
0!!
b100 '!
0x
0-!
0v
0u
1"
0(
1B
0?
1>
0=
0<
1;
08
06
04
13
00
1/
0+
1)!
1(!
1C
#140
0!
0%
#145
1!
1%
b100 &!
0)!
0(!
1#!
1!!
b1 '!
0C
1{
1x
1-!
1v
1u
b10 '!
#150
0!
0%
#155
1!
1%
b10 &!
1)!
1(!
0!!
b101100 "!
b1010001 $!
b100 '!
1C
0x
1S
0P
1O
0N
1M
0s
1r
0n
0-!
0)!
0(!
0v
0C
0u
1#
#160
0!
0%
#165
1!
1%
b100 &!
1!!
1x
1-!
1v
1u
b10 '!
1"
1(
0B
0A
1@
1?
0>
1=
0;
09
18
17
05
03
#170
0!
0%
#175
1!
1%
b10 &!
1)!
1(!
0#!
0!!
b100 '!
1C
0{
0x
0-!
0)!
0(!
0v
0C
0u
#180
0!
0%
#185
1!
1%
b100 &!
1!!
1x
1-!
b101100 .!
1v
1c
0b
0a
0`
1_
0^
1]
0\
1[
0Z
0Y
0X
1W
0V
1U
0T
1u
b10 '!
b1010001 %!
1K
0J
0I
0H
1G
0F
1E
0D
1#
#190
0!
0%
#195
1!
1%
b10 &!
0!!
b100 '!
0x
0-!
0v
0u
1"
0(
0@
1>
0=
1<
1;
1:
08
16
11
0/
1-
1+
1*
1)
x[
xZ
xY
xX
xW
xV
xU
xT
1)!
1(!
1C
#200
0!
0%
#205
1!
1%
b100 &!
0)!
0(!
1#!
1!!
b1 '!
0C
1{
1x
1-!
1v
1u
b10 '!
#210
0!
0%
#215
1!
1%
b10 &!
1)!
1(!
0!!
b111111001 "!
b1100 $!
b100 '!
1C
0x
0S
1Q
1P
0O
0M
1t
0r
1p
1n
1m
1l
1z
0y
0u
0-!
0)!
0(!
0v
0C
1#
#220
0!
0%
#225
1!
1%
b100 &!
1!!
1x
1/!
1w
1u
b10 '!
1"
1(
1B
1=
15
12
#230
0!
0%
#235
1!
1%
b10 &!
1)!
1(!
0#!
0!!
b100 '!
1C
0{
0x
0/!
0)!
0(!
0w
0C
0u
#240
0!
0%
#245
1!
1%
b100 &!
1!!
1x
1/!
b11111001 0!
1w
1u
b10 '!
bx %!
xK
xJ
xI
xH
xG
xF
xE
xD
1#
#250
0!
0%
#255
1!
1%
b10 &!
0!!
b100 '!
0x
0/!
0w
0u
1"
0(
1@
19
18
07
05
13
0.
0-
0*
0)
1)!
1(!
1C
#260
0!
0%
#265
1!
1%
b100 &!
0)!
0(!
1#!
1!!
b1 '!
0C
1{
1x
1/!
1w
1u
b10 '!
#270
0!
0%
#275
1!
1%
b10 &!
1)!
1(!
0!!
b1100001 "!
b11001011 $!
b100 '!
1C
0x
1S
1R
0Q
1M
1L
0q
0p
0m
0l
0z
1y
0u
0/!
0)!
0(!
0w
0C
1#
#280
0!
0%
#285
1!
1%
b100 &!
1!!
1x
1-!
1v
1u
b10 '!
1"
1(
0@
0?
0>
0;
0:
09
08
15
03
1[
0Z
0Y
0X
1W
0V
1U
0T
#290
0!
0%
#295
1!
1%
b10 &!
1)!
1(!
0#!
0!!
b100 '!
1C
0{
0x
0-!
0)!
0(!
0v
0C
0u
#300
0!
0%
#305
1!
1%
b100 &!
1!!
1x
1-!
b1100001 .!
1v
xc
xb
xa
x`
x_
x^
x]
x\
x[
xZ
xY
xX
xW
xV
xU
xT
1u
b10 '!
1#
#310
0!
0%
#315
1!
1%
b10 &!
0!!
b100 '!
0x
0-!
0v
0u
1"
0(
1@
1>
0=
1:
17
06
02
01
10
1/
1.
0,
1)
1)!
1(!
1C
#320
0!
0%
#325
1!
1%
b100 &!
0)!
0(!
1#!
1!!
b1 '!
0C
1{
1x
1-!
1v
1u
b10 '!
#330
0!
0%
#335
1!
1%
b10 &!
1)!
1(!
0!!
b101001110 "!
b10100 $!
b100 '!
1C
0x
0S
0R
1Q
0P
1O
0M
0L
0t
1s
1r
1q
0o
1l
1z
0y
0u
0-!
0)!
0(!
0v
0C
1#
#340
0!
0%
#345
1!
1%
b100 &!
1!!
1x
1/!
1w
1u
b10 '!
1"
1(
0B
1A
1?
0>
07
14
13
#350
0!
0%
#355
1!
1%
b10 &!
1)!
1(!
0#!
0!!
b100 '!
1C
0{
0x
0/!
0)!
0(!
0w
0C
0u
#360
0!
0%
#365
1!
1%
b100 &!
1!!
1x
1/!
b1001110 0!
1w
1u
b10 '!
1#
#370
0!
0%
#375
1!
1%
b10 &!
0!!
b100 '!
0x
0/!
0w
0u
1"
0(
0?
0<
1;
17
04
03
0.
1,
0+
0)
1)!
1(!
1C
#380
0!
0%
#385
1!
1%
b100 &!
0)!
0(!
1#!
1!!
b1 '!
0C
1{
1x
1/!
1w
1u
b10 '!
#390
0!
0%
#395
1!
1%
b10 &!
1)!
1(!
0!!
b100110 "!
b100 '!
1C
0x
0q
1o
0n
0l
0z
1y
0u
0/!
0)!
0(!
0w
0C
1#
#400
0!
0%
#405
1!
1%
b100 &!
1!!
1x
1-!
1v
1u
b10 '!
1"
1(
1=
0;
0:
18
16
05
12
#410
0!
0%
#415
1!
1%
b10 &!
1)!
1(!
0#!
0!!
b100 '!
1C
0{
0x
0-!
0)!
0(!
0v
0C
0u
#420
0!
0%
#425
1!
1%
b100 &!
1!!
1x
1-!
b100110 .!
1v
0c
0b
1a
0`
1_
0^
0]
0\
0[
0Z
1Y
0X
1W
0V
0U
0T
1u
b10 '!
b10100 %!
0K
0J
1I
0H
1G
0F
0E
0D
1#
#430
0!
0%
#435
1!
1%
b10 &!
0!!
b100 '!
0x
0-!
0v
0u
1"
0(
1B
1?
0=
1;
1:
19
07
15
02
11
0/
1.
0,
x[
xZ
xY
xX
xW
xV
xU
xT
1)!
1(!
1C
#440
0!
0%
#445
1!
1%
b100 &!
0)!
0(!
1#!
1!!
b1 '!
0C
1{
1x
1-!
1v
1u
b10 '!
#450
0!
0%
#455
1!
1%
b10 &!
1)!
1(!
0!!
b1011 "!
b11011 $!
b100 '!
1C
0x
1S
1R
0Q
1P
1t
0r
1q
0o
0-!
0)!
0(!
0v
0C
0u
1#
#460
0!
0%
#465
1!
1%
b100 &!
1!!
1x
1-!
1v
1u
b10 '!
1"
1(
0@
0;
0:
17
06
14
13
0[
0Z
1Y
0X
1W
0V
0U
0T
#470
0!
0%
#475
1!
1%
b10 &!
1)!
1(!
0#!
0!!
b100 '!
1C
0{
0x
0-!
0)!
0(!
0v
0C
0u
#480
0!
0%
#485
1!
1%
b100 &!
1!!
1x
1-!
b1011 .!
1v
1c
1b
0a
1`
1[
1Z
0Y
1X
1u
b10 '!
b11011 %!
1K
1J
0I
1H
1#
#490
0!
0%
#495
1!
1%
b10 &!
0!!
b100 '!
0x
0-!
0v
0u
1"
0(
0B
1@
0?
1>
1=
1<
09
16
05
03
12
0.
1-
1+
1)
x[
xZ
xY
xX
xW
xV
xU
xT
1)!
1(!
1C
#500
0!
0%
#505
1!
1%
b100 &!
0)!
0(!
1#!
1!!
b1 '!
0C
1{
1x
1-!
1v
1u
b10 '!
#510
0!
0%
#515
1!
1%
b10 &!
1)!
1(!
0!!
b101010011 "!
b10101110 $!
b100 '!
1C
0x
0S
1Q
0O
1N
1L
0q
1p
1n
1l
1z
0y
0u
0-!
0)!
0(!
0v
0C
1#
#520
0!
0%
#525
1!
1%
b100 &!
1!!
1x
1/!
1w
1u
b10 '!
1"
1(
1B
0@
0=
1:
02
#530
0!
0%
#535
1!
1%
b10 &!
1)!
1(!
0#!
0!!
b100 '!
1C
0{
0x
0/!
0)!
0(!
0w
0C
0u
#540
0!
0%
#545
1!
1%
b100 &!
1!!
1x
1/!
b1010011 0!
1w
1u
b10 '!
bx %!
xK
xJ
xI
xH
xG
xF
xE
xD
1#
#550
0!
0%
#555
1!
1%
b10 &!
0!!
b100 '!
0x
0/!
0w
0u
1"
0(
0<
1;
0:
08
06
15
04
12
1/
1.
1,
0+
1)!
1(!
1C
#560
0!
0%
#565
1!
1%
b100 &!
0)!
0(!
1#!
1!!
b1 '!
0C
1{
1x
1/!
1w
1u
b10 '!
#570
0!
0%
#575
1!
1%
b10 &!
1)!
1(!
0!!
b100111111 "!
b10010100 $!
b100 '!
1C
0x
0R
0P
1O
0N
1r
1q
1o
0n
0/!
0)!
0(!
0w
0C
0u
1#
#580
0!
0%
#585
1!
1%
b100 &!
1!!
1x
1/!
1w
1u
b10 '!
1"
1(
1@
1?
1=
0;
1:
19
05
#590
0!
0%
#595
1!
1%
b10 &!
1)!
1(!
0#!
0!!
b100 '!
1C
0{
0x
0/!
0)!
0(!
0w
0C
0u
#600
0!
0%
#605
1!
1%
b100 &!
1!!
1x
1/!
b111111 0!
1w
0k
0j
1i
0h
1g
0f
0e
1d
0[
0Z
1Y
0X
1W
0V
0U
1T
1u
b10 '!
b10010100 %!
0K
0J
1I
0H
1G
0F
0E
1D
1#
#610
0!
0%
#615
1!
1%
b10 &!
0!!
b100 '!
0x
0/!
0w
0u
1"
0(
0B
0@
0>
0=
1<
1;
09
16
14
02
0/
0-
0)
x[
xZ
xY
xX
xW
xV
xU
xT
1)!
1(!
1C
#620
0!
0%
#625
1!
1%
b100 &!
0)!
0(!
1#!
1!!
b1 '!
0C
1{
1x
1/!
1w
1u
b10 '!
#630
0!
0%
#635
1!
1%
b10 &!
1)!
1(!
0!!
b101011 "!
b101100 $!
b100 '!
1C
0x
1P
0O
1N
0L
0r
0p
0l
0z
1y
0u
0/!
0)!
0(!
0w
0C
1#
#640
0!
0%
#645
1!
1%
b100 &!
1!!
1x
1-!
1v
1u
b10 '!
1"
1(
1B
1=
0<
0;
0:
19
18
06
13
12
1[
1Z
0Y
1X
1W
0V
0U
0T
#650
0!
0%
#655
1!
1%
b10 &!
1)!
1(!
0#!
0!!
b100 '!
1C
0{
0x
0-!
0)!
0(!
0v
0C
0u
#660
0!
0%
#665
1!
1%
b100 &!
1!!
1x
1-!
b101011 .!
1v
0c
0b
1a
0_
1^
0[
0Z
1Y
0W
1V
1u
b10 '!
b101100 %!
1H
0G
1F
0D
1#
#670
0!
0%
#675
1!
1%
b10 &!
0!!
b100 '!
0x
0-!
0v
0u
1"
0(
1@
0?
1>
07
16
04
01
00
0.
1-
0,
1+
1)
x[
xZ
xY
xX
xW
xV
xU
xT
1)!
1(!
1C
#680
0!
0%
#685
1!
1%
b100 &!
0)!
0(!
1#!
1!!
b1 '!
0C
1{
1x
1-!
1v
1u
b10 '!
#690
0!
0%
#695
1!
1%
b10 &!
1)!
1(!
0!!
b101010000 "!
b11001011 $!
b100 '!
1C
0x
1S
1R
0Q
0N
1M
1L
0t
0s
0q
1p
0o
1n
1l
1z
0y
0u
0-!
0)!
0(!
0v
0C
1#
#700
0!
0%
#705
1!
1%
b100 &!
1!!
1x
1/!
1w
1u
b10 '!
1"
1(
0B
0A
0@
0=
1<
1:
09
06
02
0[
0Z
1Y
0X
1W
0V
0U
1T
#710
0!
0%
#715
1!
1%
b10 &!
1)!
1(!
0#!
0!!
b100 '!
1C
0{
0x
0/!
0)!
0(!
0w
0C
0u
#720
0!
0%
#725
1!
1%
b100 &!
1!!
1x
1/!
b1010000 0!
1w
xk
xj
xi
xh
xg
xf
xe
xd
x[
xZ
xY
xX
xW
xV
xU
xT
1u
b10 '!
bx %!
xK
xJ
xI
xH
xG
xF
xE
xD
1#
#730
0!
0%
#735
1!
1%
b10 &!
0!!
b100 '!
0x
0/!
0w
0u
1"
0(
1A
1@
1?
0>
1=
0<
19
08
17
15
14
03
10
1/
1,
1*
0)
1)!
1(!
1C
#740
0!
0%
#745
1!
1%
b100 &!
0)!
0(!
1#!
1!!
b1 '!
0C
1{
1x
1/!
1w
1u
b10 '!
#750
0!
0%
#755
1!
1%
b10 &!
1)!
1(!
0!!
b11110110 "!
b110101 $!
b100 '!
1C
0x
0R
1Q
0P
1O
1N
0M
0L
1s
1r
1o
1m
0l
0z
1y
0u
0/!
0)!
0(!
0w
0C
1#
#760
0!
0%
#765
1!
1%
b100 &!
1!!
1x
1-!
1v
1u
b10 '!
1"
1(
0?
1>
1<
1;
0:
09
07
16
04
12
0[
0Z
1Y
1X
0W
1V
0U
0T
#770
0!
0%
#775
1!
1%
b10 &!
1)!
1(!
0#!
0!!
b100 '!
1C
0{
0x
0-!
0)!
0(!
0v
0C
0u
#780
0!
0%
#785
1!
1%
b100 &!
1!!
1x
1-!
b11110110 .!
1v
xc
xb
xa
x`
x_
x^
x]
x\
x[
xZ
xY
xX
xW
xV
xU
xT
1u
b10 '!
1#
#790
0!
0%
#795
1!
1%
b10 &!
0!!
b100 '!
0x
0-!
0v
0u
1"
0(
0A
1?
0<
0;
1:
19
18
17
06
05
14
1)
1)!
1(!
1C
#800
0!
0%
#805
1!
1%
b100 &!
0)!
0(!
1#!
1!!
b1 '!
0C
1{
1x
1-!
1v
1u
b10 '!
#810
0!
0%
#815
1!
1%
b10 &!
1)!
1(!
0!!
b111110110 "!
b10100111 $!
b100 '!
1C
0x
1R
0O
1L
1l
1z
0y
0u
0-!
0)!
0(!
0v
0C
1#
#820
0!
0%
#825
1!
1%
b100 &!
1!!
1x
1/!
1w
1u
b10 '!
1"
1(
1A
0?
1<
1;
07
16
15
04
13
02
#830
0!
0%
#835
1!
1%
b10 &!
1)!
1(!
0#!
0!!
b100 '!
1C
0{
0x
0/!
0)!
0(!
0w
0C
0u
#840
0!
0%
#845
1!
1%
b100 &!
1!!
1x
1/!
b11110110 0!
1w
1u
b10 '!
1#
#850
0!
0%
#855
1!
1%
b10 &!
0!!
b100 '!
0x
0/!
0w
0u
1"
0(
1B
0A
0@
1?
0;
0:
09
06
03
12
0,
0+
0*
1)!
1(!
1C
#860
0!
0%
#865
1!
1%
b100 &!
0)!
0(!
1#!
1!!
b1 '!
0C
1{
1x
1/!
1w
1u
b10 '!
#870
0!
0%
#875
1!
1%
b10 &!
1)!
1(!
0!!
b100010110 "!
b10010010 $!
b100 '!
1C
0x
0S
0Q
1O
0N
0o
0n
0m
0/!
0)!
0(!
0w
0C
0u
1#
#880
0!
0%
#885
1!
1%
b100 &!
1!!
1x
1/!
1w
1u
b10 '!
1"
1(
0B
1A
1@
0?
0=
0<
1:
19
08
17
16
#890
0!
0%
#895
1!
1%
b10 &!
1)!
1(!
0#!
0!!
b100 '!
1C
0{
0x
0/!
0)!
0(!
0w
0C
0u
#900
0!
0%
#905
1!
1%
b100 &!
1!!
1x
1/!
b10110 0!
1w
0k
1j
0i
0h
1g
0f
0e
1d
0[
1Z
0Y
0X
1W
0V
0U
1T
1u
b10 '!
b10010010 %!
0K
1J
0I
0H
1G
0F
0E
1D
1#
#910
0!
0%
#915
1!
1%
b10 &!
0!!
b100 '!
0x
0/!
0w
0u
1"
0(
1B
0A
0@
0>
1<
0:
09
07
06
05
13
00
1.
0-
1,
1+
x[
xZ
xY
xX
xW
xV
xU
xT
1)!
1(!
1C
#920
0!
0%
#925
1!
1%
b100 &!
0)!
0(!
1#!
1!!
b1 '!
0C
1{
1x
1/!
1w
1u
b10 '!
#930
0!
0%
#935
1!
1%
b10 &!
1)!
1(!
0!!
b101101100 "!
b11000000 $!
b100 '!
1C
0x
0R
0O
1M
0s
1q
0p
1o
1n
0/!
0)!
0(!
0w
0C
0u
1#
#940
0!
0%
#945
1!
1%
b100 &!
1!!
1x
1/!
1w
1u
b10 '!
1"
1(
0B
1@
1?
1=
1:
19
17
15
14
02
0[
1Z
0Y
0X
1W
0V
0U
1T
#950
0!
0%
#955
1!
1%
b10 &!
1)!
1(!
0#!
0!!
b100 '!
1C
0{
0x
0/!
0)!
0(!
0w
0C
0u
#960
0!
0%
#965
1!
1%
b100 &!
1!!
1x
1/!
b1101100 0!
1w
xk
xj
xi
xh
xg
xf
xe
xd
x[
xZ
xY
xX
xW
xV
xU
xT
1u
b10 '!
bx %!
xK
xJ
xI
xH
xG
xF
xE
xD
1#
#970
0!
0%
#975
1!
1%
b10 &!
0!!
b100 '!
0x
0/!
0w
0u
1"
0(
1B
1A
1>
0=
0<
1;
09
18
07
16
05
04
03
12
10
0/
1-
0,
0+
0)
1)!
1(!
1C
#980
0!
0%
#985
1!
1%
b100 &!
0)!
0(!
1#!
1!!
b1 '!
0C
1{
1x
1/!
1w
1u
b10 '!
#990
0!
0%
#995
1!
1%
b10 &!
1)!
1(!
0!!
b11010 "!
b10001010 $!
b100 '!
1C
0x
1R
1P
0M
1s
0r
1p
0o
0n
0l
0z
1y
0u
0/!
0)!
0(!
0w
0C
1#
#1000
0!
0%
#1005
1!
1%
b100 &!
1!!
1x
1-!
1v
1u
b10 '!
1"
1(
0B
0@
0;
0:
14
13
02
#1010
0!
0%
#1015
1!
1%
b10 &!
1)!
1(!
0#!
0!!
b100 '!
1C
0{
0x
0-!
0)!
0(!
0v
0C
0u
#1020
0!
0%
#1025
1!
1%
b100 &!
1!!
1x
1-!
b11010 .!
1v
0c
1b
0a
1`
0_
0^
0]
1\
0[
1Z
0Y
1X
0W
0V
0U
1T
1u
b10 '!
b10001010 %!
0K
1J
0I
1H
0G
0F
0E
1D
1#
#1030
0!
0%
#1035
1!
1%
b10 &!
0!!
b100 '!
0x
0-!
0v
0u
1"
0(
0A
1@
0?
0>
1<
19
08
17
06
15
04
12
0.
1+
1*
x[
xZ
xY
xX
xW
xV
xU
xT
1)!
1(!
1C
#1040
0!
0%
#1045
1!
1%
b100 &!
0)!
0(!
1#!
1!!
b1 '!
0C
1{
1x
1-!
1v
1u
b10 '!
#1050
0!
0%
#1055
1!
1%
b10 &!
1)!
1(!
0!!
b11010010 "!
b11010101 $!
b100 '!
1C
0x
1S
0R
1Q
0P
1O
1M
0q
1n
1m
0-!
0)!
0(!
0v
0C
0u
1#
#1060
0!
0%
#1065
1!
1%
b100 &!
1!!
1x
1-!
1v
1u
b10 '!
1"
1(
1A
0@
1>
1;
18
07
05
14
03
0[
1Z
0Y
1X
0W
0V
0U
1T
#1070
0!
0%
#1075
1!
1%
b10 &!
1)!
1(!
0#!
0!!
b100 '!
1C
0{
0x
0-!
0)!
0(!
0v
0C
0u
#1080
0!
0%
